data/background-cube6-cerenkov/DataLog_509.csv

Model,MDO4034C
Firmware Version,1.10

Waveform Type,ANALOG,,,
Point Format,Y,,,
Horizontal Units,s,,,
Horizontal Scale,4e-07,,,
Horizontal Delay,1.874e-06,,,
Sample Interval,4e-10,,,
Record Length,10000,,,
Gating,0.0% to 100.0%,,,
Probe Attenuation,1,1,1,1
Vertical Units,V,V,V,V
Vertical Offset,0,0,0,0
Vertical Scale,0.2,0.2,1,1
Vertical Position,4.02,4.02,1.06,1.04
,,,,
,,,,
,,,,
Label,,,,
TIME,CH1,CH2,CH3,CH4
-1.2600e-07,0.004,-0.004,0.06,0
-1.2560e-07,0.004,-0.004,0.02,0.04
-1.2520e-07,0.004,0.004,0.02,0
-1.2480e-07,0.004,-0.004,0.02,0
-1.2440e-07,-0.004,-0.004,0.06,0.04
-1.2400e-07,-0.004,-0.004,0.02,0.04
-1.2360e-07,-0.004,0.004,-0.02,0.04
-1.2320e-07,-0.004,0.004,0.02,0
-1.2280e-07,-0.004,-0.004,0.02,0
-1.2240e-07,0.004,0.004,0.02,0
-1.2200e-07,-0.004,-0.004,-0.02,0.04
-1.2160e-07,-0.004,0.004,0.02,0.04
-1.2120e-07,-0.004,0.004,-0.02,0
-1.2080e-07,0.004,0.004,-0.02,0
-1.2040e-07,0.004,-0.004,0.02,0
-1.2000e-07,0.004,0.004,0.06,0.04
-1.1960e-07,-0.004,0.004,-0.02,0
-1.1920e-07,-0.004,0.004,-0.02,-0.04
-1.1880e-07,0.004,0.004,0.02,0
-1.1840e-07,0.004,-0.004,0.02,0
-1.1800e-07,0.004,-0.004,-0.02,0
-1.1760e-07,0.004,-0.004,-0.02,0
-1.1720e-07,-0.004,-0.004,-0.02,0
-1.1680e-07,0.004,-0.004,-0.02,-0.04
-1.1640e-07,-0.004,-0.012,-0.02,0
-1.1600e-07,-0.004,-0.012,0.02,0
-1.1560e-07,-0.004,0.004,-0.02,0.04
-1.1520e-07,-0.004,-0.004,-0.02,0
-1.1480e-07,0.004,0.004,-0.02,0
-1.1440e-07,-0.004,-0.012,0.02,0
-1.1400e-07,-0.004,0.004,0.02,0
-1.1360e-07,-0.004,0.004,0.02,0.04
-1.1320e-07,-0.004,0.004,0.02,0.04
-1.1280e-07,-0.004,0.004,-0.02,0.04
-1.1240e-07,0.004,0.004,-0.02,0
-1.1200e-07,0.004,-0.004,0.02,0
-1.1160e-07,0.004,-0.004,0.02,0.04
-1.1120e-07,-0.004,-0.004,0.02,0.04
-1.1080e-07,0.004,-0.004,0.02,0
-1.1040e-07,0.004,0.004,0.02,0.04
-1.1000e-07,0.004,0.012,0.02,0
-1.0960e-07,0.012,-0.004,-0.02,0
-1.0920e-07,-0.004,0.004,-0.06,0.04
-1.0880e-07,0.004,0.004,0.02,0
-1.0840e-07,0.004,0.004,-0.02,0
-1.0800e-07,0.012,-0.004,-0.02,0
-1.0760e-07,0.004,-0.004,0.06,0
-1.0720e-07,-0.004,-0.004,-0.02,0.04
-1.0680e-07,-0.004,-0.004,0.02,0.04
-1.0640e-07,-0.012,0.004,0.02,0.04
-1.0600e-07,-0.004,0.004,0.02,0.04
-1.0560e-07,0.004,0.004,0.02,0.04
-1.0520e-07,0.004,0.004,0.02,0
-1.0480e-07,0.004,-0.004,0.02,0
-1.0440e-07,0.004,-0.004,0.02,0
-1.0400e-07,0.004,0.004,0.06,0
-1.0360e-07,0.004,-0.004,0.06,0
-1.0320e-07,-0.004,-0.004,0.02,0.04
-1.0280e-07,0.004,0.004,0.02,0
-1.0240e-07,0.004,0.004,0.02,0.04
-1.0200e-07,0.004,0.004,0.02,0
-1.0160e-07,0.004,0.004,0.02,0
-1.0120e-07,-0.004,-0.004,0.02,0.04
-1.0080e-07,0.004,0.004,-0.02,0.04
-1.0040e-07,0.004,-0.004,0.02,0
-1.0000e-07,-0.004,0.004,0.02,0
-9.9600e-08,0.004,0.004,0.02,0
-9.9200e-08,0.004,0.004,0.02,0
-9.8800e-08,0.004,0.004,0.02,0.08
-9.8400e-08,-0.004,-0.004,-0.02,0.04
-9.8000e-08,0.004,-0.004,-0.02,0.04
-9.7600e-08,0.004,0.004,0.02,0.04
-9.7200e-08,0.004,-0.004,0.02,0
-9.6800e-08,0.004,0.004,0.02,0.04
-9.6400e-08,0.004,-0.004,-0.02,0
-9.6000e-08,-0.004,0.004,0.02,0.04
-9.5600e-08,0.004,0.004,0.02,0.04
-9.5200e-08,0.004,0.004,0.02,0
-9.4800e-08,-0.004,-0.004,-0.02,0.04
-9.4400e-08,-0.004,-0.004,0.02,0
-9.4000e-08,-0.004,-0.004,0.02,0
-9.3600e-08,0.012,-0.004,0.02,0.04
-9.3200e-08,-0.004,0.004,0.02,0.04
-9.2800e-08,-0.012,0.004,0.02,0.04
-9.2400e-08,-0.004,0.004,-0.02,0
-9.2000e-08,-0.004,-0.004,-0.02,0.04
-9.1600e-08,0.004,-0.004,0.02,0.04
-9.1200e-08,0.004,-0.004,0.02,0.04
-9.0800e-08,0.004,-0.004,0.02,-0.04
-9.0400e-08,0.004,0.004,0.02,0.04
-9.0000e-08,-0.004,-0.004,-0.02,0.04
-8.9600e-08,-0.004,-0.004,-0.02,0
-8.9200e-08,-0.004,-0.004,0.02,0.04
-8.8800e-08,0.004,-0.004,0.02,0.04
-8.8400e-08,0.004,-0.004,-0.02,0
-8.8000e-08,0.004,0.004,0.02,0
-8.7600e-08,-0.004,-0.012,-0.02,0.04
-8.7200e-08,-0.004,0.004,0.02,0
-8.6800e-08,-0.004,0.004,0.02,0
-8.6400e-08,0.004,-0.004,-0.02,0.04
-8.6000e-08,0.012,0.004,0.02,0.08
-8.5600e-08,0.004,0.004,0.02,0.04
-8.5200e-08,-0.004,-0.004,-0.02,0
-8.4800e-08,-0.004,0.004,0.02,0.04
-8.4400e-08,0.004,-0.004,0.02,0
-8.4000e-08,0.004,-0.004,0.02,0
-8.3600e-08,-0.004,0.012,-0.02,0.08
-8.3200e-08,0.004,0.004,0.02,0.04
-8.2800e-08,0.004,-0.004,0.02,0.04
-8.2400e-08,-0.004,0.004,-0.02,0
-8.2000e-08,-0.004,0.004,0.02,0
-8.1600e-08,-0.004,-0.004,0.02,0
-8.1200e-08,-0.004,0.004,0.02,0.04
-8.0800e-08,0.004,0.004,-0.02,0.04
-8.0400e-08,0.004,-0.004,0.02,0
-8.0000e-08,0.004,-0.004,0.02,0
-7.9600e-08,0.004,-0.004,0.02,0
-7.9200e-08,-0.004,-0.004,0.02,0
-7.8800e-08,0.004,-0.004,-0.02,0
-7.8400e-08,-0.004,0.004,0.06,0
-7.8000e-08,-0.004,0.004,0.02,0.04
-7.7600e-08,0.004,0.004,-0.02,0
-7.7200e-08,0.004,-0.004,0.06,0
-7.6800e-08,0.004,-0.004,0.02,0
-7.6400e-08,-0.004,-0.004,-0.02,0.04
-7.6000e-08,0.004,-0.004,0.02,0
-7.5600e-08,-0.004,-0.004,0.02,0.04
-7.5200e-08,-0.004,-0.004,0.02,0.04
-7.4800e-08,-0.004,-0.004,0.06,0
-7.4400e-08,-0.004,-0.004,-0.02,0
-7.4000e-08,0.004,-0.012,0.02,-0.04
-7.3600e-08,0.004,-0.004,0.02,0
-7.3200e-08,0.004,-0.004,0.02,0
-7.2800e-08,-0.004,-0.004,0.02,0.04
-7.2400e-08,-0.004,-0.004,-0.06,0
-7.2000e-08,-0.004,-0.004,-0.02,0.08
-7.1600e-08,0.004,-0.004,-0.02,0.04
-7.1200e-08,0.004,0.004,-0.02,0
-7.0800e-08,-0.004,-0.004,0.02,0
-7.0400e-08,-0.004,0.004,0.02,0
-7.0000e-08,-0.004,-0.004,0.02,-0.04
-6.9600e-08,0.004,0.004,0.02,0
-6.9200e-08,0.004,0.004,0.02,0.04
-6.8800e-08,0.004,0.004,-0.02,0.04
-6.8400e-08,0.012,-0.004,-0.02,0.04
-6.8000e-08,-0.004,0.004,-0.02,0.08
-6.7600e-08,0.004,-0.012,0.02,0
-6.7200e-08,0.004,-0.004,-0.02,0
-6.6800e-08,0.004,0.004,-0.02,0
-6.6400e-08,-0.004,0.004,0.02,0
-6.6000e-08,0.012,0.004,0.02,0
-6.5600e-08,0.004,-0.004,0.02,0
-6.5200e-08,-0.004,0.004,0.02,0
-6.4800e-08,0.004,-0.004,0.02,0
-6.4400e-08,-0.012,-0.004,0.02,-0.04
-6.4000e-08,-0.004,0.004,-0.02,0
-6.3600e-08,0.004,0.004,-0.02,0.04
-6.3200e-08,0.004,-0.012,-0.02,-0.04
-6.2800e-08,0.004,-0.004,-0.02,-0.04
-6.2400e-08,0.004,-0.004,0.02,0
-6.2000e-08,0.004,-0.012,0.02,0.04
-6.1600e-08,-0.004,-0.004,0.02,0
-6.1200e-08,-0.004,0.004,0.02,0
-6.0800e-08,-0.004,-0.004,0.02,0
-6.0400e-08,0.004,-0.004,0.02,0.04
-6.0000e-08,0.004,-0.004,-0.02,0
-5.9600e-08,0.004,-0.004,0.02,0
-5.9200e-08,-0.004,0.004,0.02,0.04
-5.8800e-08,-0.004,0.004,0.02,0
-5.8400e-08,0.004,0.004,0.02,0.04
-5.8000e-08,0.004,0.004,0.02,0.04
-5.7600e-08,0.004,0.004,0.02,0.04
-5.7200e-08,0.004,0.004,-0.02,0
-5.6800e-08,0.004,0.004,-0.02,0
-5.6400e-08,0.004,0.004,-0.02,0
-5.6000e-08,-0.004,-0.004,0.06,0
-5.5600e-08,0.004,0.004,-0.02,0.04
-5.5200e-08,0.004,-0.004,-0.02,0
-5.4800e-08,-0.004,-0.012,-0.02,-0.04
-5.4400e-08,0.004,-0.004,-0.02,-0.04
-5.4000e-08,0.004,-0.004,-0.02,0
-5.3600e-08,0.004,-0.004,-0.02,0
-5.3200e-08,0.004,-0.004,-0.02,0
-5.2800e-08,-0.004,0.004,0.02,0
-5.2400e-08,0.004,0.012,-0.02,0.04
-5.2000e-08,0.004,-0.004,-0.02,0.04
-5.1600e-08,-0.012,0.004,-0.02,0.04
-5.1200e-08,0.004,-0.004,-0.02,0.04
-5.0800e-08,-0.004,0.004,0.02,0.04
-5.0400e-08,0.004,-0.004,-0.02,0
-5.0000e-08,0.004,-0.004,-0.02,0
-4.9600e-08,0.004,-0.004,-0.02,-0.04
-4.9200e-08,0.004,-0.004,-0.02,0
-4.8800e-08,-0.004,-0.004,-0.02,0
-4.8400e-08,0.004,0.004,0.02,0
-4.8000e-08,-0.004,-0.004,0.02,0
-4.7600e-08,0.004,-0.004,0.02,0.04
-4.7200e-08,-0.012,-0.004,0.02,0.04
-4.6800e-08,-0.004,-0.004,0.02,0.04
-4.6400e-08,-0.004,-0.004,-0.02,0
-4.6000e-08,0.004,-0.012,-0.02,0
-4.5600e-08,-0.004,0.004,-0.02,0.04
-4.5200e-08,0.004,-0.004,-0.02,0.04
-4.4800e-08,-0.004,-0.004,-0.02,-0.04
-4.4400e-08,0.004,0.004,-0.02,0
-4.4000e-08,0.004,-0.004,-0.02,0
-4.3600e-08,-0.004,0.004,-0.02,0.04
-4.3200e-08,-0.004,-0.004,0.02,0.04
-4.2800e-08,0.004,0.004,0.02,0
-4.2400e-08,0.004,0.004,-0.02,0
-4.2000e-08,0.004,-0.004,0.02,0
-4.1600e-08,-0.012,-0.004,0.02,0
-4.1200e-08,-0.004,0.004,0.02,0.04
-4.0800e-08,0.004,-0.004,-0.02,0.04
-4.0400e-08,-0.004,0.004,0.02,0.04
-4.0000e-08,-0.004,-0.004,0.02,0.04
-3.9600e-08,-0.004,0.004,0.02,0.04
-3.9200e-08,-0.004,-0.004,0.02,0
-3.8800e-08,0.004,-0.004,0.02,0
-3.8400e-08,-0.004,-0.004,0.02,0
-3.8000e-08,0.004,-0.012,-0.02,0
-3.7600e-08,-0.004,-0.004,-0.02,0.04
-3.7200e-08,-0.004,0.012,-0.02,0
-3.6800e-08,-0.004,-0.004,-0.02,0.08
-3.6400e-08,0.004,-0.004,0.02,0
-3.6000e-08,0.004,0.004,0.02,0
-3.5600e-08,0.004,0.004,-0.02,0
-3.5200e-08,-0.004,0.004,0.02,0
-3.4800e-08,0.004,-0.004,0.06,-0.04
-3.4400e-08,0.004,0.004,-0.02,0.04
-3.4000e-08,-0.004,-0.004,0.02,0.04
-3.3600e-08,-0.004,-0.004,0.02,0.04
-3.3200e-08,0.004,0.004,-0.02,0
-3.2800e-08,-0.004,0.004,0.02,0
-3.2400e-08,0.004,0.004,-0.02,0.04
-3.2000e-08,0.004,-0.004,-0.02,0.04
-3.1600e-08,-0.004,-0.004,-0.02,0.04
-3.1200e-08,0.012,0.004,-0.02,0
-3.0800e-08,0.012,-0.004,0.02,-0.04
-3.0400e-08,0.004,0.004,0.06,0.08
-3.0000e-08,0.004,0.004,0.02,0
-2.9600e-08,0.004,-0.004,0.02,-0.04
-2.9200e-08,0.004,0.004,0.02,0
-2.8800e-08,0.004,-0.004,0.02,0.04
-2.8400e-08,0.004,0.004,0.02,0
-2.8000e-08,0.004,0.004,0.02,0
-2.7600e-08,0.004,-0.004,0.02,0
-2.7200e-08,0.004,-0.004,0.02,0
-2.6800e-08,0.004,-0.004,0.02,0
-2.6400e-08,0.004,0.004,0.02,0.04
-2.6000e-08,0.004,0.004,-0.02,0.08
-2.5600e-08,-0.004,0.004,0.02,0
-2.5200e-08,-0.004,0.004,0.02,0
-2.4800e-08,0.004,-0.012,0.02,0.04
-2.4400e-08,0.004,-0.004,-0.02,0.04
-2.4000e-08,-0.004,-0.004,0.06,0
-2.3600e-08,-0.004,-0.004,-0.02,0
-2.3200e-08,-0.004,-0.004,0.02,0.04
-2.2800e-08,-0.004,-0.012,0.02,0.08
-2.2400e-08,0.004,-0.004,-0.02,0.04
-2.2000e-08,-0.004,0.004,-0.02,0
-2.1600e-08,0.004,0.004,0.02,0
-2.1200e-08,0.004,-0.004,0.06,0
-2.0800e-08,0.004,-0.004,-0.02,0.04
-2.0400e-08,0.004,-0.004,0.02,0.04
-2.0000e-08,0.004,-0.004,0.02,0
-1.9600e-08,-0.004,0.004,0.02,0
-1.9200e-08,0.004,-0.004,-0.02,0.04
-1.8800e-08,-0.004,-0.004,-0.02,-0.04
-1.8400e-08,-0.004,0.004,-0.02,0
-1.8000e-08,0.004,-0.004,-0.02,0
-1.7600e-08,0.004,-0.004,0.02,0
-1.7200e-08,-0.004,-0.004,-0.02,0
-1.6800e-08,0.012,-0.004,-0.06,0
-1.6400e-08,0.004,-0.004,-0.02,0.04
-1.6000e-08,0.004,-0.004,-0.02,0.04
-1.5600e-08,0.004,-0.012,-0.06,-0.04
-1.5200e-08,0.004,-0.004,-0.02,0
-1.4800e-08,-0.004,-0.004,-0.02,0.04
-1.4400e-08,0.004,-0.012,-0.02,0
-1.4000e-08,0.004,0.004,-0.02,0
-1.3600e-08,0.004,0.004,-0.02,0
-1.3200e-08,0.004,-0.004,-0.06,0
-1.2800e-08,0.004,-0.02,-0.06,-0.04
-1.2400e-08,0.004,-0.004,-0.1,-0.08
-1.2000e-08,-0.004,-0.012,-0.18,-0.12
-1.1600e-08,-0.004,-0.004,-0.18,-0.12
-1.1200e-08,-0.004,0.004,-0.22,-0.12
-1.0800e-08,-0.004,0.004,-0.26,-0.2
-1.0400e-08,-0.004,0.004,-0.3,-0.2
-1.0000e-08,0.004,-0.004,-0.38,-0.28
-9.6000e-09,0.004,-0.004,-0.42,-0.36
-9.2000e-09,-0.004,0.004,-0.5,-0.48
-8.8000e-09,-0.012,-0.004,-0.58,-0.52
-8.4000e-09,-0.004,-0.004,-0.62,-0.56
-8.0000e-09,-0.004,0.004,-0.74,-0.6
-7.6000e-09,0.004,0.004,-0.82,-0.72
-7.2000e-09,-0.004,0.004,-0.82,-0.76
-6.8000e-09,-0.004,0.012,-0.9,-0.84
-6.4000e-09,0.004,0.004,-0.94,-0.88
-6.0000e-09,0.004,0.004,-1.02,-0.88
-5.6000e-09,-0.004,-0.004,-1.06,-1.04
-5.2000e-09,0.004,0.004,-1.18,-1.04
-4.8000e-09,0.004,0.004,-1.22,-1.08
-4.4000e-09,0.004,0.004,-1.26,-1.16
-4.0000e-09,-0.004,0.004,-1.34,-1.2
-3.6000e-09,0.004,0.004,-1.38,-1.24
-3.2000e-09,0.004,-0.004,-1.42,-1.32
-2.8000e-09,0.004,-0.004,-1.46,-1.4
-2.4000e-09,0.004,-0.004,-1.54,-1.44
-2.0000e-09,-0.004,-0.004,-1.62,-1.48
-1.6000e-09,-0.012,0.004,-1.66,-1.52
-1.2000e-09,-0.004,-0.004,-1.7,-1.52
-8.0000e-10,-0.004,-0.012,-1.78,-1.6
-4.0000e-10,0.004,-0.012,-1.78,-1.68
0.0000e+00,0.004,-0.004,-1.82,-1.68
4.0000e-10,-0.004,0.004,-1.86,-1.8
8.0000e-10,-0.004,0.004,-1.86,-1.84
1.2000e-09,-0.004,-0.012,-1.9,-1.88
1.6000e-09,0.004,-0.004,-1.98,-1.92
2.0000e-09,-0.004,-0.004,-2.02,-1.92
2.4000e-09,-0.004,-0.004,-2.06,-1.96
2.8000e-09,0.004,-0.004,-2.1,-2.04
3.2000e-09,-0.004,-0.004,-2.18,-2.04
3.6000e-09,0.004,-0.004,-2.18,-2.08
4.0000e-09,0.004,0.004,-2.18,-2.12
4.4000e-09,0.004,-0.004,-2.22,-2.16
4.8000e-09,-0.004,0.004,-2.26,-2.2
5.2000e-09,-0.004,0.004,-2.26,-2.2
5.6000e-09,-0.004,-0.004,-2.34,-2.28
6.0000e-09,-0.004,-0.004,-2.34,-2.24
6.4000e-09,0.004,0.004,-2.38,-2.28
6.8000e-09,0.004,-0.004,-2.38,-2.28
7.2000e-09,0.012,-0.004,-2.42,-2.32
7.6000e-09,0.004,-0.004,-2.46,-2.36
8.0000e-09,0.004,-0.004,-2.42,-2.4
8.4000e-09,-0.004,-0.004,-2.46,-2.4
8.8000e-09,0.004,-0.012,-2.5,-2.48
9.2000e-09,-0.004,-0.012,-2.5,-2.48
9.6000e-09,-0.004,0.004,-2.5,-2.48
1.0000e-08,0.004,0.004,-2.54,-2.48
1.0400e-08,-0.004,-0.004,-2.54,-2.52
1.0800e-08,0.004,-0.004,-2.62,-2.52
1.1200e-08,0.004,-0.004,-2.58,-2.56
1.1600e-08,-0.004,-0.004,-2.62,-2.56
1.2000e-08,-0.004,-0.004,-2.58,-2.56
1.2400e-08,0.004,0.004,-2.66,-2.56
1.2800e-08,0.004,0.004,-2.66,-2.56
1.3200e-08,0.004,-0.004,-2.62,-2.56
1.3600e-08,0.004,-0.012,-2.66,-2.64
1.4000e-08,0.004,0.004,-2.66,-2.6
1.4400e-08,0.004,-0.004,-2.66,-2.6
1.4800e-08,0.004,0.004,-2.66,-2.6
1.5200e-08,0.004,-0.012,-2.66,-2.6
1.5600e-08,-0.012,0.004,-2.66,-2.6
1.6000e-08,-0.004,-0.004,-2.74,-2.64
1.6400e-08,-0.004,-0.004,-2.62,-2.64
1.6800e-08,-0.004,-0.004,-2.7,-2.64
1.7200e-08,-0.004,0.004,-2.66,-2.64
1.7600e-08,-0.012,0.004,-2.7,-2.64
1.8000e-08,-0.004,0.004,-2.78,-2.64
1.8400e-08,0.004,0.004,-2.74,-2.68
1.8800e-08,-0.004,-0.004,-2.7,-2.68
1.9200e-08,0.004,0.004,-2.74,-2.68
1.9600e-08,0.004,-0.004,-2.74,-2.72
2.0000e-08,-0.004,0.004,-2.74,-2.68
2.0400e-08,0.004,-0.004,-2.7,-2.68
2.0800e-08,0.004,-0.004,-2.78,-2.68
2.1200e-08,0.004,-0.004,-2.78,-2.68
2.1600e-08,0.004,-0.004,-2.74,-2.68
2.2000e-08,-0.004,-0.004,-2.74,-2.68
2.2400e-08,0.004,0.004,-2.74,-2.68
2.2800e-08,-0.004,0.004,-2.66,-2.64
2.3200e-08,0.004,0.004,-2.7,-2.64
2.3600e-08,-0.004,-0.004,-2.74,-2.68
2.4000e-08,-0.004,-0.012,-2.74,-2.68
2.4400e-08,0.012,0.004,-2.74,-2.64
2.4800e-08,0.004,0.004,-2.7,-2.64
2.5200e-08,0.004,0.004,-2.78,-2.68
2.5600e-08,0.004,-0.004,-2.74,-2.68
2.6000e-08,-0.004,-0.004,-2.7,-2.68
2.6400e-08,0.004,-0.004,-2.74,-2.68
2.6800e-08,0.004,-0.004,-2.7,-2.72
2.7200e-08,0.004,-0.004,-2.7,-2.68
2.7600e-08,0.004,-0.004,-2.74,-2.68
2.8000e-08,0.004,0.004,-2.78,-2.68
2.8400e-08,-0.004,-0.004,-2.74,-2.68
2.8800e-08,-0.004,-0.004,-2.74,-2.68
2.9200e-08,-0.004,0.004,-2.7,-2.68
2.9600e-08,0.004,0.012,-2.7,-2.68
3.0000e-08,0.012,0.012,-2.7,-2.64
3.0400e-08,-0.004,0.004,-2.66,-2.56
3.0800e-08,0.004,0.004,-2.7,-2.6
3.1200e-08,-0.004,-0.004,-2.74,-2.64
3.1600e-08,-0.004,-0.004,-2.7,-2.6
3.2000e-08,-0.004,0.004,-2.74,-2.64
3.2400e-08,-0.004,-0.004,-2.66,-2.56
3.2800e-08,0.004,0.004,-2.7,-2.56
3.3200e-08,-0.004,-0.012,-2.7,-2.56
3.3600e-08,0.012,-0.004,-2.7,-2.56
3.4000e-08,0.004,0.004,-2.66,-2.52
3.4400e-08,0.004,-0.004,-2.66,-2.52
3.4800e-08,-0.004,0.012,-2.66,-2.52
3.5200e-08,-0.004,-0.004,-2.62,-2.52
3.5600e-08,0.004,-0.004,-2.62,-2.44
3.6000e-08,0.004,-0.004,-2.58,-2.48
3.6400e-08,0.004,-0.012,-2.62,-2.44
3.6800e-08,0.004,0.004,-2.58,-2.44
3.7200e-08,-0.004,-0.004,-2.54,-2.4
3.7600e-08,-0.004,0.004,-2.54,-2.4
3.8000e-08,0.004,0.004,-2.5,-2.32
3.8400e-08,0.012,-0.004,-2.5,-2.28
3.8800e-08,0.004,0.004,-2.46,-2.24
3.9200e-08,0.004,-0.004,-2.42,-2.16
3.9600e-08,0.004,0.004,-2.38,-2.16
4.0000e-08,0.004,-0.004,-2.38,-2.12
4.0400e-08,-0.004,-0.004,-2.26,-2.08
4.0800e-08,0.004,0.004,-2.22,-2.08
4.1200e-08,-0.004,-0.004,-2.18,-2.12
4.1600e-08,-0.004,0.004,-2.18,-2.08
4.2000e-08,-0.004,-0.004,-2.14,-2.04
4.2400e-08,-0.004,0.004,-2.14,-2.04
4.2800e-08,-0.004,-0.004,-2.14,-1.96
4.3200e-08,0.004,-0.004,-2.1,-1.96
4.3600e-08,-0.004,-0.004,-2.1,-2
4.4000e-08,0.004,0.012,-2.14,-1.96
4.4400e-08,0.004,0.004,-2.1,-1.96
4.4800e-08,0.004,-0.004,-1.98,-1.92
4.5200e-08,0.004,0.004,-2.02,-1.92
4.5600e-08,0.004,-0.012,-2.06,-1.88
4.6000e-08,0.004,0.004,-1.98,-1.84
4.6400e-08,-0.004,0.004,-1.98,-1.84
4.6800e-08,-0.004,0.004,-1.94,-1.8
4.7200e-08,0.004,0.004,-1.94,-1.8
4.7600e-08,0.004,0.004,-1.9,-1.8
4.8000e-08,-0.004,-0.004,-1.9,-1.76
4.8400e-08,-0.004,0.004,-1.86,-1.76
4.8800e-08,-0.004,-0.012,-1.86,-1.76
4.9200e-08,-0.004,0.004,-1.82,-1.72
4.9600e-08,0.004,0.004,-1.82,-1.76
5.0000e-08,-0.004,-0.004,-1.82,-1.76
5.0400e-08,-0.004,-0.004,-1.78,-1.72
5.0800e-08,-0.004,-0.004,-1.74,-1.68
5.1200e-08,0.004,0.004,-1.74,-1.72
5.1600e-08,0.004,0.004,-1.78,-1.68
5.2000e-08,0.004,0.012,-1.78,-1.68
5.2400e-08,0.004,0.004,-1.74,-1.68
5.2800e-08,-0.004,-0.004,-1.7,-1.64
5.3200e-08,-0.004,0.004,-1.66,-1.6
5.3600e-08,-0.004,0.004,-1.7,-1.6
5.4000e-08,0.004,-0.004,-1.66,-1.56
5.4400e-08,0.004,-0.004,-1.66,-1.52
5.4800e-08,-0.004,0.004,-1.66,-1.56
5.5200e-08,-0.004,-0.004,-1.54,-1.56
5.5600e-08,0.004,-0.004,-1.54,-1.52
5.6000e-08,0.004,-0.004,-1.62,-1.56
5.6400e-08,0.004,-0.004,-1.62,-1.56
5.6800e-08,-0.004,-0.004,-1.62,-1.52
5.7200e-08,-0.004,0.004,-1.54,-1.52
5.7600e-08,0.004,-0.004,-1.54,-1.52
5.8000e-08,-0.004,0.004,-1.5,-1.52
5.8400e-08,-0.012,0.004,-1.54,-1.44
5.8800e-08,-0.004,-0.004,-1.5,-1.48
5.9200e-08,0.004,-0.004,-1.46,-1.44
5.9600e-08,0.004,-0.004,-1.46,-1.44
6.0000e-08,0.004,-0.004,-1.46,-1.44
6.0400e-08,-0.004,0.004,-1.42,-1.44
6.0800e-08,-0.004,0.004,-1.38,-1.4
6.1200e-08,0.012,-0.004,-1.38,-1.44
6.1600e-08,-0.012,-0.004,-1.42,-1.4
6.2000e-08,-0.004,-0.004,-1.42,-1.36
6.2400e-08,-0.004,0.004,-1.34,-1.36
6.2800e-08,-0.004,0.004,-1.38,-1.36
6.3200e-08,-0.004,0.004,-1.34,-1.36
6.3600e-08,-0.004,0.004,-1.34,-1.36
6.4000e-08,0.004,-0.004,-1.34,-1.36
6.4400e-08,0.004,0.004,-1.38,-1.32
6.4800e-08,0.004,-0.004,-1.34,-1.32
6.5200e-08,-0.004,0.004,-1.3,-1.28
6.5600e-08,-0.004,0.004,-1.3,-1.24
6.6000e-08,0.004,0.004,-1.3,-1.28
6.6400e-08,0.004,-0.004,-1.26,-1.32
6.6800e-08,-0.004,-0.012,-1.26,-1.28
6.7200e-08,0.004,-0.004,-1.26,-1.24
6.7600e-08,-0.004,-0.004,-1.26,-1.24
6.8000e-08,-0.004,0.004,-1.26,-1.24
6.8400e-08,0.004,0.004,-1.18,-1.24
6.8800e-08,-0.004,-0.004,-1.26,-1.24
6.9200e-08,0.004,0.004,-1.18,-1.2
6.9600e-08,-0.004,-0.004,-1.18,-1.2
7.0000e-08,0.004,0.004,-1.14,-1.24
7.0400e-08,0.004,-0.004,-1.14,-1.2
7.0800e-08,-0.004,-0.004,-1.14,-1.2
7.1200e-08,-0.004,-0.004,-1.14,-1.2
7.1600e-08,0.004,-0.004,-1.14,-1.16
7.2000e-08,0.004,0.004,-1.14,-1.2
7.2400e-08,-0.004,-0.004,-1.14,-1.2
7.2800e-08,0.004,0.004,-1.14,-1.16
7.3200e-08,0.004,0.004,-1.1,-1.16
7.3600e-08,0.004,-0.004,-1.06,-1.16
7.4000e-08,0.004,0.004,-1.06,-1.16
7.4400e-08,-0.004,-0.004,-1.06,-1.12
7.4800e-08,-0.012,-0.012,-1.06,-1.12
7.5200e-08,-0.004,-0.004,-1.06,-1.08
7.5600e-08,-0.012,0.004,-1.06,-1.12
7.6000e-08,-0.004,0.004,-1.06,-1.08
7.6400e-08,-0.004,-0.004,-1.02,-1.08
7.6800e-08,-0.004,0.004,-1.02,-1.08
7.7200e-08,-0.004,-0.004,-1.02,-1.08
7.7600e-08,-0.004,0.004,-0.98,-1.08
7.8000e-08,0.004,0.004,-1.06,-1.04
7.8400e-08,-0.004,-0.004,-1.02,-1.04
7.8800e-08,-0.004,0.004,-1.02,-1.04
7.9200e-08,0.004,0.004,-0.98,-1.04
7.9600e-08,-0.004,-0.004,-0.98,-1.04
8.0000e-08,0.004,0.004,-1.02,-1.04
8.0400e-08,0.004,0.004,-1.02,-1.04
8.0800e-08,0.012,-0.004,-1.02,-1
8.1200e-08,0.004,0.004,-0.98,-1
8.1600e-08,-0.004,-0.004,-0.98,-1
8.2000e-08,0.004,0.004,-0.98,-1
8.2400e-08,0.004,0.004,-0.94,-0.96
8.2800e-08,-0.004,-0.004,-0.9,-0.96
8.3200e-08,0.004,-0.004,-0.86,-1
8.3600e-08,0.004,-0.004,-0.9,-1
8.4000e-08,-0.004,0.004,-0.86,-0.96
8.4400e-08,0.004,-0.004,-0.9,-0.92
8.4800e-08,-0.004,-0.004,-0.94,-0.96
8.5200e-08,-0.004,-0.004,-0.9,-0.92
8.5600e-08,-0.004,-0.004,-0.86,-0.88
8.6000e-08,0.004,-0.004,-0.9,-0.92
8.6400e-08,-0.004,0.004,-0.86,-0.96
8.6800e-08,0.004,-0.004,-0.86,-0.92
8.7200e-08,0.004,-0.004,-0.86,-0.88
8.7600e-08,0.004,-0.004,-0.82,-0.84
8.8000e-08,-0.004,0.004,-0.9,-0.88
8.8400e-08,0.004,-0.004,-0.86,-0.88
8.8800e-08,-0.004,0.004,-0.82,-0.84
8.9200e-08,-0.004,-0.004,-0.82,-0.88
8.9600e-08,-0.004,-0.004,-0.86,-0.84
9.0000e-08,-0.004,0.004,-0.82,-0.88
9.0400e-08,0.004,0.004,-0.82,-0.8
9.0800e-08,0.004,0.004,-0.82,-0.84
9.1200e-08,0.004,-0.004,-0.82,-0.88
9.1600e-08,0.004,-0.004,-0.82,-0.84
9.2000e-08,0.004,0.004,-0.86,-0.8
9.2400e-08,0.004,0.004,-0.82,-0.8
9.2800e-08,-0.004,0.004,-0.82,-0.8
9.3200e-08,-0.004,-0.004,-0.82,-0.76
9.3600e-08,-0.004,0.004,-0.78,-0.76
9.4000e-08,0.004,0.004,-0.78,-0.72
9.4400e-08,0.004,-0.004,-0.82,-0.76
9.4800e-08,0.004,0.004,-0.82,-0.72
9.5200e-08,0.004,-0.004,-0.74,-0.76
9.5600e-08,0.004,-0.004,-0.74,-0.76
9.6000e-08,0.004,-0.012,-0.82,-0.76
9.6400e-08,0.004,-0.004,-0.78,-0.72
9.6800e-08,-0.004,-0.004,-0.74,-0.72
9.7200e-08,0.004,-0.004,-0.78,-0.76
9.7600e-08,0.004,-0.004,-0.78,-0.76
9.8000e-08,-0.012,0.004,-0.74,-0.72
9.8400e-08,-0.012,-0.012,-0.74,-0.68
9.8800e-08,0.004,0.004,-0.7,-0.72
