data/cube9-cerenkov-scint-signal/DataLog_1840.csv

Model,MDO4034C
Firmware Version,1.10

Waveform Type,ANALOG,,,
Point Format,Y,,,
Horizontal Units,s,,,
Horizontal Scale,4e-07,,,
Horizontal Delay,1.874e-06,,,
Sample Interval,4e-10,,,
Record Length,10000,,,
Gating,0.0% to 100.0%,,,
Probe Attenuation,1,1,1,1
Vertical Units,V,V,V,V
Vertical Offset,0,0,0,0
Vertical Scale,0.2,0.2,1,1
Vertical Position,4.02,4.02,1.06,1.04
,,,,
,,,,
,,,,
Label,,,,
TIME,CH1,CH2,CH3,CH4
-1.2600e-07,-0.004,-0.012,-0.02,0.04
-1.2560e-07,-0.004,-0.004,0.02,0
-1.2520e-07,-0.004,-0.004,0.02,0
-1.2480e-07,0.004,-0.004,0.02,0.08
-1.2440e-07,-0.004,0.004,0.02,0.04
-1.2400e-07,0.004,0.004,0.02,0.04
-1.2360e-07,-0.004,-0.004,0.02,0
-1.2320e-07,0.004,-0.004,0.02,0
-1.2280e-07,-0.012,0.004,-0.02,0
-1.2240e-07,-0.004,-0.004,-0.02,0.04
-1.2200e-07,0.004,-0.004,-0.02,0.08
-1.2160e-07,-0.004,-0.004,-0.02,0.04
-1.2120e-07,0.004,-0.012,-0.02,0.04
-1.2080e-07,-0.004,-0.004,-0.02,0.04
-1.2040e-07,0.004,0.004,-0.02,0.04
-1.2000e-07,-0.004,0.004,-0.02,0
-1.1960e-07,0.004,0.004,-0.06,0.04
-1.1920e-07,0.004,0.012,-0.02,0.04
-1.1880e-07,-0.004,-0.004,-0.02,0.04
-1.1840e-07,-0.004,-0.004,0.02,0.08
-1.1800e-07,-0.004,0.004,0.06,0.04
-1.1760e-07,0.004,-0.012,0.02,0.04
-1.1720e-07,-0.004,0.004,-0.02,0.04
-1.1680e-07,0.004,0.004,-0.02,0
-1.1640e-07,-0.004,0.004,0.02,0.04
-1.1600e-07,-0.004,0.004,-0.02,0
-1.1560e-07,-0.004,-0.004,0.02,0.04
-1.1520e-07,-0.004,-0.004,0.02,0.12
-1.1480e-07,0.004,0.004,0.02,0.04
-1.1440e-07,0.004,0.004,0.02,0.04
-1.1400e-07,-0.012,0.012,0.02,0.08
-1.1360e-07,0.004,-0.004,0.02,0
-1.1320e-07,-0.004,-0.004,0.02,0.04
-1.1280e-07,0.004,-0.004,0.02,0.04
-1.1240e-07,0.012,-0.004,0.02,0.04
-1.1200e-07,0.004,0.004,-0.02,0.04
-1.1160e-07,0.004,-0.004,0.02,0
-1.1120e-07,-0.004,-0.004,-0.02,0
-1.1080e-07,-0.004,-0.012,-0.02,0
-1.1040e-07,0.004,-0.004,0.06,0
-1.1000e-07,-0.004,-0.004,-0.02,0.04
-1.0960e-07,0.004,-0.004,0.02,0
-1.0920e-07,-0.004,-0.004,-0.02,0.04
-1.0880e-07,-0.004,-0.004,0.02,0
-1.0840e-07,-0.004,0.004,0.02,0.04
-1.0800e-07,-0.004,0.004,-0.02,0.04
-1.0760e-07,0.004,-0.004,-0.02,0.04
-1.0720e-07,0.004,-0.012,0.02,0.04
-1.0680e-07,-0.004,-0.004,0.02,0
-1.0640e-07,-0.004,0.004,0.02,0
-1.0600e-07,0.004,0.004,0.02,-0.04
-1.0560e-07,0.004,0.004,0.06,0
-1.0520e-07,-0.004,0.004,0.02,0.04
-1.0480e-07,0.004,-0.004,0.02,0.04
-1.0440e-07,0.004,-0.004,0.02,0.04
-1.0400e-07,0.004,-0.004,-0.02,0.04
-1.0360e-07,0.004,0.012,0.02,0.04
-1.0320e-07,-0.004,-0.004,0.02,0.04
-1.0280e-07,-0.004,-0.004,-0.02,0.04
-1.0240e-07,-0.004,0.004,-0.02,0.04
-1.0200e-07,0.012,-0.004,-0.02,0
-1.0160e-07,0.004,-0.004,0.02,0
-1.0120e-07,-0.004,-0.004,0.02,0
-1.0080e-07,-0.004,0.004,-0.02,0
-1.0040e-07,-0.004,-0.004,-0.02,0
-1.0000e-07,-0.004,-0.004,0.02,0
-9.9600e-08,0.004,0.004,0.06,0
-9.9200e-08,-0.004,-0.004,0.06,0.08
-9.8800e-08,0.004,0.004,0.02,0
-9.8400e-08,0.004,-0.004,0.02,0.08
-9.8000e-08,-0.004,0.004,0.02,0.04
-9.7600e-08,-0.004,-0.004,0.02,0
-9.7200e-08,0.004,-0.004,0.02,0
-9.6800e-08,0.004,-0.004,0.02,0
-9.6400e-08,0.004,-0.004,0.02,0.04
-9.6000e-08,0.012,-0.004,-0.02,0.04
-9.5600e-08,-0.004,0.004,-0.02,0
-9.5200e-08,0.004,0.004,0.02,0.04
-9.4800e-08,-0.004,-0.004,0.02,0
-9.4400e-08,-0.004,-0.004,-0.02,0.04
-9.4000e-08,-0.004,-0.004,-0.02,0.04
-9.3600e-08,0.004,-0.004,0.02,0.04
-9.3200e-08,-0.004,-0.004,0.02,0.04
-9.2800e-08,-0.004,-0.004,-0.02,0.04
-9.2400e-08,0.004,0.004,-0.02,0
-9.2000e-08,-0.004,0.004,0.02,0.04
-9.1600e-08,-0.004,-0.012,0.02,0
-9.1200e-08,-0.004,-0.012,-0.02,0
-9.0800e-08,-0.004,-0.004,-0.02,0
-9.0400e-08,-0.004,-0.004,-0.02,-0.04
-9.0000e-08,0.004,0.004,-0.02,0.04
-8.9600e-08,-0.004,0.004,-0.02,0.04
-8.9200e-08,-0.004,-0.004,0.02,0
-8.8800e-08,0.004,0.004,-0.02,0.08
-8.8400e-08,0.004,0.004,0.02,0.04
-8.8000e-08,-0.004,0.004,0.02,0.04
-8.7600e-08,-0.004,-0.004,0.02,0
-8.7200e-08,-0.004,0.004,0.02,0.04
-8.6800e-08,-0.012,0.012,0.06,0.04
-8.6400e-08,-0.004,0.004,-0.02,0.04
-8.6000e-08,0.004,0.012,0.02,0.04
-8.5600e-08,-0.004,-0.004,-0.02,0.04
-8.5200e-08,0.004,-0.004,-0.02,0.04
-8.4800e-08,0.004,-0.004,0.02,0.04
-8.4400e-08,-0.004,0.004,0.02,0.08
-8.4000e-08,0.004,0.004,0.02,0.04
-8.3600e-08,0.004,0.004,0.02,0.04
-8.3200e-08,0.004,0.012,0.02,0
-8.2800e-08,0.004,-0.012,-0.02,0.04
-8.2400e-08,-0.004,0.004,0.02,0.04
-8.2000e-08,0.004,0.004,0.02,0.04
-8.1600e-08,0.004,0.004,-0.02,0.04
-8.1200e-08,-0.004,-0.004,0.02,0.04
-8.0800e-08,0.004,0.004,0.02,0.04
-8.0400e-08,0.004,0.004,-0.02,0.04
-8.0000e-08,-0.004,0.004,0.02,0.04
-7.9600e-08,-0.012,0.004,0.02,0
-7.9200e-08,-0.004,0.004,0.02,0
-7.8800e-08,0.004,-0.004,0.02,0.04
-7.8400e-08,0.004,-0.004,0.02,0.04
-7.8000e-08,0.004,-0.004,0.02,0.04
-7.7600e-08,-0.012,0.004,-0.02,0
-7.7200e-08,-0.004,0.004,0.02,0
-7.6800e-08,-0.004,-0.004,0.02,0
-7.6400e-08,0.004,0.004,-0.02,0
-7.6000e-08,-0.004,0.004,-0.02,0.04
-7.5600e-08,0.004,-0.004,0.06,0.04
-7.5200e-08,0.004,-0.004,0.06,0.04
-7.4800e-08,0.004,-0.004,0.06,0.04
-7.4400e-08,-0.004,0.004,-0.02,0
-7.4000e-08,-0.004,-0.004,0.02,0
-7.3600e-08,-0.004,-0.004,0.02,0
-7.3200e-08,-0.004,-0.004,0.02,0.04
-7.2800e-08,0.004,-0.004,0.02,0.04
-7.2400e-08,0.004,0.004,0.02,0.04
-7.2000e-08,-0.004,-0.004,0.02,0.04
-7.1600e-08,0.004,-0.004,0.02,0.04
-7.1200e-08,0.004,-0.004,-0.02,0
-7.0800e-08,-0.004,-0.004,0.02,0.08
-7.0400e-08,-0.004,0.004,0.06,0.04
-7.0000e-08,0.004,-0.004,0.02,0.04
-6.9600e-08,0.004,-0.004,-0.02,0
-6.9200e-08,0.004,-0.004,-0.02,0
-6.8800e-08,0.004,-0.012,0.02,-0.04
-6.8400e-08,0.004,-0.004,-0.02,0
-6.8000e-08,0.004,-0.004,0.02,0
-6.7600e-08,0.004,0.004,-0.02,0.04
-6.7200e-08,-0.004,-0.004,0.02,0.04
-6.6800e-08,0.004,-0.004,-0.02,0
-6.6400e-08,0.004,-0.004,-0.02,0.04
-6.6000e-08,0.004,-0.004,0.02,0.04
-6.5600e-08,0.004,-0.004,-0.02,0.04
-6.5200e-08,0.004,-0.004,0.02,0.04
-6.4800e-08,-0.004,0.004,-0.02,0
-6.4400e-08,-0.004,-0.004,0.06,0.04
-6.4000e-08,0.012,-0.004,0.02,0.04
-6.3600e-08,-0.004,-0.004,0.02,0.04
-6.3200e-08,-0.004,0.004,0.02,0.04
-6.2800e-08,0.004,0.004,0.02,0.04
-6.2400e-08,0.004,-0.004,-0.02,0.08
-6.2000e-08,0.012,0.004,-0.02,0
-6.1600e-08,-0.004,-0.004,-0.02,0.04
-6.1200e-08,0.004,0.004,0.02,0.04
-6.0800e-08,0.004,-0.004,0.02,0
-6.0400e-08,-0.004,0.004,0.02,0
-6.0000e-08,-0.004,0.004,-0.02,-0.04
-5.9600e-08,0.004,-0.004,0.02,0.04
-5.9200e-08,-0.004,0.004,0.02,0.04
-5.8800e-08,-0.004,0.004,0.06,0
-5.8400e-08,-0.004,-0.004,0.02,0.04
-5.8000e-08,-0.004,0.004,0.02,0.04
-5.7600e-08,-0.004,0.004,0.02,0.04
-5.7200e-08,0.004,0.004,0.02,0
-5.6800e-08,-0.004,-0.004,0.1,0.04
-5.6400e-08,-0.004,-0.004,0.02,0
-5.6000e-08,0.004,-0.004,0.02,0
-5.5600e-08,0.012,-0.004,0.02,0.04
-5.5200e-08,-0.004,-0.012,-0.02,0.04
-5.4800e-08,0.004,-0.004,-0.02,0.04
-5.4400e-08,0.004,0.004,-0.02,0.04
-5.4000e-08,-0.004,-0.004,0.02,0
-5.3600e-08,0.004,-0.004,0.02,0
-5.3200e-08,0.004,-0.004,0.02,0.04
-5.2800e-08,0.004,-0.004,0.02,0
-5.2400e-08,-0.004,0.004,-0.02,0.04
-5.2000e-08,-0.004,-0.004,0.02,0.04
-5.1600e-08,-0.004,-0.004,0.02,0
-5.1200e-08,-0.004,0.004,0.06,0.04
-5.0800e-08,-0.004,-0.004,0.06,0
-5.0400e-08,0.004,-0.004,0.02,0
-5.0000e-08,0.004,-0.004,0.1,0
-4.9600e-08,-0.012,0.004,-0.02,0.04
-4.9200e-08,-0.004,0.004,0.02,0.04
-4.8800e-08,0.004,0.004,0.02,0.04
-4.8400e-08,-0.004,0.004,0.02,0.04
-4.8000e-08,0.004,0.004,0.02,0.04
-4.7600e-08,-0.004,0.012,0.02,0.04
-4.7200e-08,0.004,0.004,-0.02,0.04
-4.6800e-08,-0.004,-0.004,0.02,0.08
-4.6400e-08,-0.012,0.004,0.06,0.04
-4.6000e-08,-0.004,0.004,0.02,0.04
-4.5600e-08,-0.004,0.004,-0.02,0.04
-4.5200e-08,-0.004,-0.004,-0.02,0.04
-4.4800e-08,-0.004,0.004,0.02,0.04
-4.4400e-08,-0.004,-0.004,0.02,0
-4.4000e-08,-0.004,-0.004,0.02,0
-4.3600e-08,-0.004,0.004,0.02,0.04
-4.3200e-08,0.004,0.004,0.02,0.04
-4.2800e-08,0.004,0.004,-0.02,0
-4.2400e-08,-0.004,0.004,0.02,0
-4.2000e-08,-0.004,-0.004,0.02,0.04
-4.1600e-08,-0.004,0.004,-0.02,0.04
-4.1200e-08,-0.004,-0.004,-0.02,0
-4.0800e-08,-0.004,-0.004,0.02,0.04
-4.0400e-08,0.004,-0.012,0.02,0.04
-4.0000e-08,-0.004,0.004,-0.02,0
-3.9600e-08,-0.004,0.004,-0.02,0.04
-3.9200e-08,-0.004,-0.004,-0.02,0
-3.8800e-08,-0.004,0.004,0.02,0
-3.8400e-08,0.004,-0.004,0.02,0
-3.8000e-08,-0.004,-0.004,-0.02,0
-3.7600e-08,-0.004,0.004,-0.02,0
-3.7200e-08,-0.012,-0.012,0.02,0.08
-3.6800e-08,0.004,-0.004,-0.02,0.04
-3.6400e-08,-0.004,-0.004,0.06,0.04
-3.6000e-08,0.004,-0.004,-0.02,0
-3.5600e-08,-0.004,-0.004,0.02,0.08
-3.5200e-08,0.004,-0.004,0.02,0.04
-3.4800e-08,0.004,-0.004,0.02,0
-3.4400e-08,0.004,0.004,0.02,0
-3.4000e-08,0.004,-0.012,0.02,0
-3.3600e-08,0.004,0.004,0.02,0
-3.3200e-08,0.004,0.004,0.06,0.04
-3.2800e-08,-0.004,0.004,0.02,0.04
-3.2400e-08,0.004,-0.004,-0.02,0.04
-3.2000e-08,0.004,-0.004,-0.02,0.04
-3.1600e-08,0.004,0.004,0.02,0.04
-3.1200e-08,-0.012,0.004,0.02,0
-3.0800e-08,-0.004,0.004,0.02,0.04
-3.0400e-08,-0.004,-0.004,0.02,0.04
-3.0000e-08,-0.004,-0.012,0.02,0
-2.9600e-08,0.004,0.004,0.02,0
-2.9200e-08,0.004,-0.004,-0.02,0.04
-2.8800e-08,0.012,0.004,-0.02,0.04
-2.8400e-08,-0.004,0.004,0.06,0
-2.8000e-08,-0.004,-0.004,0.06,0.04
-2.7600e-08,0.012,-0.004,-0.02,0
-2.7200e-08,0.004,0.004,-0.02,0
-2.6800e-08,-0.004,0.004,0.02,0
-2.6400e-08,-0.004,0.004,0.02,0.08
-2.6000e-08,0.004,-0.004,-0.02,0.08
-2.5600e-08,0.004,0.004,-0.02,0
-2.5200e-08,0.004,-0.004,0.02,0.04
-2.4800e-08,-0.004,0.004,0.02,0
-2.4400e-08,0.004,-0.004,0.06,0.04
-2.4000e-08,-0.012,-0.004,0.02,0.04
-2.3600e-08,0.004,-0.004,0.02,0.04
-2.3200e-08,0.004,-0.004,0.06,0
-2.2800e-08,0.004,0.004,0.02,0.04
-2.2400e-08,0.004,-0.004,0.02,0.08
-2.2000e-08,-0.004,0.004,0.02,0.08
-2.1600e-08,-0.004,-0.004,0.02,0.04
-2.1200e-08,-0.004,-0.012,0.02,0.04
-2.0800e-08,0.004,0.004,0.02,0
-2.0400e-08,-0.004,0.004,0.06,0.04
-2.0000e-08,-0.004,0.004,0.02,0.04
-1.9600e-08,-0.004,-0.004,0.06,0.08
-1.9200e-08,-0.004,-0.012,0.02,0.08
-1.8800e-08,-0.004,-0.004,0.02,0.04
-1.8400e-08,-0.004,0.004,-0.02,0.08
-1.8000e-08,0.004,0.004,0.02,0.04
-1.7600e-08,0.004,-0.004,0.02,-0.04
-1.7200e-08,-0.004,-0.004,0.02,0
-1.6800e-08,-0.004,0.004,0.02,-0.04
-1.6400e-08,0.004,-0.004,-0.06,-0.04
-1.6000e-08,-0.004,-0.004,-0.02,-0.08
-1.5600e-08,-0.004,0.004,0.02,-0.12
-1.5200e-08,0.004,-0.004,-0.06,-0.2
-1.4800e-08,0.004,-0.004,-0.1,-0.28
-1.4400e-08,0.004,0.004,-0.1,-0.32
-1.4000e-08,0.004,0.004,-0.14,-0.32
-1.3600e-08,0.004,-0.012,-0.18,-0.52
-1.3200e-08,0.004,-0.012,-0.22,-0.56
-1.2800e-08,0.004,-0.004,-0.26,-0.6
-1.2400e-08,0.004,-0.004,-0.26,-0.72
-1.2000e-08,-0.004,-0.004,-0.34,-0.76
-1.1600e-08,0.004,0.004,-0.34,-0.84
-1.1200e-08,-0.004,-0.004,-0.42,-0.84
-1.0800e-08,-0.004,0.004,-0.46,-0.96
-1.0400e-08,-0.004,-0.004,-0.5,-1.04
-1.0000e-08,0.004,-0.004,-0.58,-1.12
-9.6000e-09,-0.004,-0.004,-0.62,-1.16
-9.2000e-09,-0.004,0.004,-0.66,-1.24
-8.8000e-09,-0.004,-0.004,-0.7,-1.28
-8.4000e-09,0.004,0.004,-0.78,-1.32
-8.0000e-09,-0.004,-0.004,-0.86,-1.36
-7.6000e-09,0.004,0.004,-0.86,-1.52
-7.2000e-09,0.004,0.004,-0.94,-1.56
-6.8000e-09,-0.004,0.004,-1.02,-1.64
-6.4000e-09,0.004,-0.004,-1.02,-1.64
-6.0000e-09,0.004,-0.004,-1.1,-1.68
-5.6000e-09,0.004,-0.004,-1.18,-1.72
-5.2000e-09,0.004,-0.004,-1.22,-1.8
-4.8000e-09,0.004,-0.004,-1.26,-1.84
-4.4000e-09,0.004,0.012,-1.34,-1.88
-4.0000e-09,-0.004,-0.004,-1.38,-1.92
-3.6000e-09,0.004,-0.004,-1.42,-1.92
-3.2000e-09,-0.012,-0.004,-1.46,-1.96
-2.8000e-09,-0.004,0.004,-1.54,-2.04
-2.4000e-09,-0.004,0.004,-1.54,-2.04
-2.0000e-09,-0.004,-0.004,-1.62,-2.12
-1.6000e-09,-0.012,-0.004,-1.66,-2.12
-1.2000e-09,-0.012,-0.012,-1.74,-2.12
-8.0000e-10,-0.028,-0.012,-1.74,-2.16
-4.0000e-10,-0.052,-0.02,-1.82,-2.2
0.0000e+00,-0.108,-0.052,-1.9,-2.2
4.0000e-10,-0.204,-0.108,-1.94,-2.28
8.0000e-10,-0.34,-0.18,-1.94,-2.24
1.2000e-09,-0.46,-0.284,-1.98,-2.28
1.6000e-09,-0.572,-0.38,-1.98,-2.32
2.0000e-09,-0.628,-0.46,-2.02,-2.36
2.4000e-09,-0.628,-0.476,-2.1,-2.4
2.8000e-09,-0.572,-0.468,-2.14,-2.36
3.2000e-09,-0.492,-0.428,-2.18,-2.48
3.6000e-09,-0.412,-0.372,-2.18,-2.44
4.0000e-09,-0.348,-0.332,-2.26,-2.48
4.4000e-09,-0.3,-0.284,-2.26,-2.48
4.8000e-09,-0.252,-0.26,-2.26,-2.48
5.2000e-09,-0.228,-0.244,-2.3,-2.52
5.6000e-09,-0.196,-0.228,-2.3,-2.52
6.0000e-09,-0.18,-0.212,-2.3,-2.52
6.4000e-09,-0.156,-0.204,-2.34,-2.52
6.8000e-09,-0.124,-0.196,-2.34,-2.56
7.2000e-09,-0.116,-0.18,-2.34,-2.56
7.6000e-09,-0.1,-0.172,-2.38,-2.56
8.0000e-09,-0.1,-0.156,-2.34,-2.6
8.4000e-09,-0.084,-0.156,-2.38,-2.64
8.8000e-09,-0.092,-0.14,-2.38,-2.56
9.2000e-09,-0.092,-0.132,-2.34,-2.6
9.6000e-09,-0.1,-0.124,-2.34,-2.64
1.0000e-08,-0.1,-0.116,-2.38,-2.64
1.0400e-08,-0.108,-0.092,-2.34,-2.64
1.0800e-08,-0.108,-0.092,-2.38,-2.64
1.1200e-08,-0.108,-0.076,-2.38,-2.68
1.1600e-08,-0.108,-0.076,-2.34,-2.64
1.2000e-08,-0.1,-0.068,-2.34,-2.68
1.2400e-08,-0.092,-0.068,-2.34,-2.68
1.2800e-08,-0.084,-0.076,-2.38,-2.64
1.3200e-08,-0.084,-0.084,-2.34,-2.68
1.3600e-08,-0.076,-0.092,-2.3,-2.72
1.4000e-08,-0.068,-0.092,-2.34,-2.64
1.4400e-08,-0.076,-0.1,-2.34,-2.68
1.4800e-08,-0.06,-0.1,-2.34,-2.64
1.5200e-08,-0.076,-0.1,-2.3,-2.72
1.5600e-08,-0.076,-0.092,-2.34,-2.72
1.6000e-08,-0.084,-0.076,-2.34,-2.72
1.6400e-08,-0.084,-0.068,-2.3,-2.68
1.6800e-08,-0.092,-0.068,-2.3,-2.68
1.7200e-08,-0.116,-0.06,-2.26,-2.72
1.7600e-08,-0.116,-0.06,-2.26,-2.68
1.8000e-08,-0.124,-0.076,-2.26,-2.72
1.8400e-08,-0.116,-0.084,-2.26,-2.68
1.8800e-08,-0.108,-0.084,-2.26,-2.68
1.9200e-08,-0.1,-0.1,-2.22,-2.68
1.9600e-08,-0.092,-0.1,-2.22,-2.68
2.0000e-08,-0.084,-0.084,-2.22,-2.68
2.0400e-08,-0.084,-0.092,-2.18,-2.68
2.0800e-08,-0.076,-0.084,-2.18,-2.72
2.1200e-08,-0.076,-0.084,-2.18,-2.72
2.1600e-08,-0.084,-0.092,-2.22,-2.68
2.2000e-08,-0.068,-0.092,-2.18,-2.64
2.2400e-08,-0.076,-0.092,-2.14,-2.6
2.2800e-08,-0.076,-0.084,-2.1,-2.64
2.3200e-08,-0.084,-0.084,-2.14,-2.68
2.3600e-08,-0.076,-0.092,-2.1,-2.6
2.4000e-08,-0.076,-0.092,-2.1,-2.64
2.4400e-08,-0.068,-0.084,-2.02,-2.64
2.4800e-08,-0.068,-0.084,-2.02,-2.64
2.5200e-08,-0.076,-0.092,-2.02,-2.68
2.5600e-08,-0.076,-0.084,-2.02,-2.64
2.6000e-08,-0.076,-0.068,-2.02,-2.6
2.6400e-08,-0.076,-0.068,-2.02,-2.64
2.6800e-08,-0.068,-0.06,-1.94,-2.64
2.7200e-08,-0.06,-0.044,-1.94,-2.64
2.7600e-08,-0.06,-0.036,-1.98,-2.64
2.8000e-08,-0.06,-0.036,-2.02,-2.6
2.8400e-08,-0.044,-0.044,-2.06,-2.6
2.8800e-08,-0.044,-0.052,-1.98,-2.6
2.9200e-08,-0.036,-0.044,-1.94,-2.6
2.9600e-08,-0.036,-0.068,-1.9,-2.6
3.0000e-08,-0.028,-0.076,-1.9,-2.6
3.0400e-08,-0.028,-0.092,-1.86,-2.56
3.0800e-08,-0.028,-0.092,-1.82,-2.6
3.1200e-08,-0.02,-0.084,-1.86,-2.6
3.1600e-08,-0.02,-0.068,-1.9,-2.6
3.2000e-08,-0.028,-0.06,-1.82,-2.56
3.2400e-08,-0.036,-0.052,-1.82,-2.56
3.2800e-08,-0.052,-0.052,-1.74,-2.6
3.3200e-08,-0.052,-0.052,-1.78,-2.6
3.3600e-08,-0.052,-0.052,-1.78,-2.56
3.4000e-08,-0.044,-0.028,-1.78,-2.56
3.4400e-08,-0.052,-0.028,-1.74,-2.6
3.4800e-08,-0.036,-0.028,-1.74,-2.6
3.5200e-08,-0.028,-0.036,-1.74,-2.6
3.5600e-08,-0.028,-0.036,-1.7,-2.6
3.6000e-08,-0.036,-0.036,-1.74,-2.6
3.6400e-08,-0.028,-0.036,-1.66,-2.6
3.6800e-08,-0.028,-0.052,-1.7,-2.56
3.7200e-08,-0.036,-0.06,-1.66,-2.56
3.7600e-08,-0.036,-0.068,-1.66,-2.56
3.8000e-08,-0.036,-0.068,-1.66,-2.56
3.8400e-08,-0.036,-0.076,-1.62,-2.52
3.8800e-08,-0.036,-0.076,-1.62,-2.56
3.9200e-08,-0.036,-0.076,-1.62,-2.56
3.9600e-08,-0.028,-0.068,-1.66,-2.6
4.0000e-08,-0.036,-0.076,-1.62,-2.6
4.0400e-08,-0.044,-0.084,-1.58,-2.56
4.0800e-08,-0.036,-0.068,-1.54,-2.56
4.1200e-08,-0.036,-0.068,-1.58,-2.52
4.1600e-08,-0.028,-0.068,-1.62,-2.52
4.2000e-08,-0.036,-0.06,-1.58,-2.52
4.2400e-08,-0.028,-0.068,-1.54,-2.52
4.2800e-08,-0.028,-0.052,-1.5,-2.52
4.3200e-08,-0.02,-0.052,-1.5,-2.52
4.3600e-08,-0.02,-0.044,-1.5,-2.52
4.4000e-08,-0.02,-0.044,-1.5,-2.52
4.4400e-08,-0.02,-0.036,-1.5,-2.56
4.4800e-08,-0.02,-0.028,-1.5,-2.52
4.5200e-08,-0.02,-0.028,-1.46,-2.52
4.5600e-08,-0.036,-0.02,-1.46,-2.52
4.6000e-08,-0.028,-0.02,-1.46,-2.52
4.6400e-08,-0.036,-0.02,-1.46,-2.52
4.6800e-08,-0.028,-0.02,-1.42,-2.52
4.7200e-08,-0.036,-0.028,-1.42,-2.48
4.7600e-08,-0.028,-0.028,-1.38,-2.52
4.8000e-08,-0.02,-0.028,-1.38,-2.48
4.8400e-08,-0.012,-0.028,-1.38,-2.48
4.8800e-08,-0.012,-0.028,-1.3,-2.48
4.9200e-08,-0.012,-0.02,-1.34,-2.52
4.9600e-08,-0.012,-0.012,-1.34,-2.52
5.0000e-08,-0.02,-0.004,-1.34,-2.52
5.0400e-08,-0.02,-0.012,-1.34,-2.44
5.0800e-08,-0.02,-0.012,-1.3,-2.48
5.1200e-08,-0.02,-0.012,-1.3,-2.52
5.1600e-08,-0.02,-0.004,-1.26,-2.52
5.2000e-08,-0.028,-0.012,-1.3,-2.48
5.2400e-08,-0.028,-0.012,-1.3,-2.48
5.2800e-08,-0.036,-0.02,-1.26,-2.52
5.3200e-08,-0.052,-0.028,-1.26,-2.48
5.3600e-08,-0.052,-0.028,-1.22,-2.44
5.4000e-08,-0.044,-0.028,-1.18,-2.48
5.4400e-08,-0.052,-0.028,-1.26,-2.52
5.4800e-08,-0.044,-0.028,-1.22,-2.48
5.5200e-08,-0.052,-0.028,-1.18,-2.48
5.5600e-08,-0.052,-0.028,-1.18,-2.48
5.6000e-08,-0.052,-0.036,-1.18,-2.44
5.6400e-08,-0.044,-0.036,-1.18,-2.48
5.6800e-08,-0.044,-0.028,-1.18,-2.48
5.7200e-08,-0.052,-0.02,-1.14,-2.48
5.7600e-08,-0.044,-0.02,-1.18,-2.48
5.8000e-08,-0.036,-0.028,-1.18,-2.48
5.8400e-08,-0.036,-0.028,-1.14,-2.48
5.8800e-08,-0.036,-0.028,-1.1,-2.52
5.9200e-08,-0.02,-0.02,-1.14,-2.48
5.9600e-08,-0.02,-0.012,-1.1,-2.52
6.0000e-08,-0.02,-0.02,-1.1,-2.52
6.0400e-08,-0.028,-0.02,-1.06,-2.48
6.0800e-08,-0.02,-0.02,-1.1,-2.4
6.1200e-08,-0.02,-0.028,-1.06,-2.32
6.1600e-08,-0.02,-0.028,-1.06,-2.24
6.2000e-08,-0.012,-0.028,-1.06,-2.16
6.2400e-08,-0.012,-0.028,-1.02,-2.08
6.2800e-08,-0.004,-0.028,-1.06,-2.04
6.3200e-08,-0.012,-0.02,-1.02,-1.92
6.3600e-08,-0.004,-0.028,-1.02,-1.88
6.4000e-08,-0.012,-0.028,-1.02,-1.84
6.4400e-08,-0.012,-0.036,-0.98,-1.8
6.4800e-08,-0.012,-0.044,-0.98,-1.72
6.5200e-08,-0.012,-0.06,-0.98,-1.72
6.5600e-08,-0.02,-0.052,-0.94,-1.76
6.6000e-08,-0.012,-0.044,-0.98,-1.76
6.6400e-08,-0.02,-0.052,-0.98,-1.76
6.6800e-08,-0.02,-0.036,-0.94,-1.68
6.7200e-08,-0.02,-0.028,-0.9,-1.64
6.7600e-08,-0.012,-0.028,-0.94,-1.64
6.8000e-08,-0.004,-0.02,-0.94,-1.6
6.8400e-08,-0.012,-0.028,-0.9,-1.64
6.8800e-08,-0.012,-0.02,-0.9,-1.6
6.9200e-08,-0.004,-0.02,-0.9,-1.6
6.9600e-08,-0.004,-0.012,-0.9,-1.6
7.0000e-08,-0.004,-0.004,-0.9,-1.56
7.0400e-08,-0.012,-0.012,-0.86,-1.56
7.0800e-08,-0.012,-0.012,-0.86,-1.52
7.1200e-08,-0.012,-0.012,-0.9,-1.52
7.1600e-08,-0.02,-0.012,-0.9,-1.52
7.2000e-08,-0.028,-0.004,-0.9,-1.48
7.2400e-08,-0.036,-0.004,-0.86,-1.48
7.2800e-08,-0.036,-0.012,-0.82,-1.44
7.3200e-08,-0.028,-0.012,-0.86,-1.44
7.3600e-08,-0.036,-0.004,-0.82,-1.4
7.4000e-08,-0.028,-0.004,-0.82,-1.36
7.4400e-08,-0.02,-0.02,-0.82,-1.36
7.4800e-08,-0.02,-0.02,-0.82,-1.36
7.5200e-08,-0.02,-0.012,-0.74,-1.36
7.5600e-08,-0.028,-0.036,-0.74,-1.36
7.6000e-08,-0.028,-0.044,-0.7,-1.36
7.6400e-08,-0.036,-0.036,-0.74,-1.32
7.6800e-08,-0.036,-0.036,-0.74,-1.32
7.7200e-08,-0.036,-0.036,-0.74,-1.28
7.7600e-08,-0.036,-0.036,-0.74,-1.28
7.8000e-08,-0.036,-0.036,-0.7,-1.24
7.8400e-08,-0.028,-0.036,-0.78,-1.28
7.8800e-08,-0.028,-0.028,-0.74,-1.2
7.9200e-08,-0.02,-0.036,-0.7,-1.28
7.9600e-08,-0.02,-0.028,-0.7,-1.2
8.0000e-08,-0.02,-0.028,-0.7,-1.2
8.0400e-08,-0.02,-0.02,-0.7,-1.2
8.0800e-08,-0.012,-0.02,-0.7,-1.2
8.1200e-08,-0.02,-0.004,-0.66,-1.2
8.1600e-08,-0.012,-0.004,-0.66,-1.16
8.2000e-08,-0.012,-0.004,-0.66,-1.16
8.2400e-08,-0.012,-0.004,-0.7,-1.16
8.2800e-08,-0.012,-0.012,-0.66,-1.16
8.3200e-08,-0.012,-0.004,-0.7,-1.08
8.3600e-08,-0.012,-0.004,-0.66,-1.12
8.4000e-08,-0.012,-0.012,-0.66,-1.08
8.4400e-08,-0.02,-0.012,-0.66,-1.08
8.4800e-08,-0.012,-0.02,-0.66,-1.08
8.5200e-08,-0.004,-0.004,-0.66,-1.04
8.5600e-08,-0.012,-0.004,-0.62,-1.08
8.6000e-08,-0.012,-0.004,-0.62,-1.08
8.6400e-08,-0.004,-0.012,-0.66,-1
8.6800e-08,-0.02,-0.012,-0.62,-1.08
8.7200e-08,-0.012,-0.012,-0.62,-1.08
8.7600e-08,-0.012,-0.02,-0.58,-1.04
8.8000e-08,-0.028,-0.028,-0.58,-1.04
8.8400e-08,-0.02,-0.012,-0.58,-1.04
8.8800e-08,-0.02,-0.012,-0.58,-1.04
8.9200e-08,-0.02,-0.012,-0.54,-1.04
8.9600e-08,-0.02,-0.004,-0.58,-0.96
9.0000e-08,-0.012,-0.012,-0.58,-1
9.0400e-08,-0.02,-0.004,-0.54,-0.96
9.0800e-08,-0.02,-0.004,-0.58,-1
9.1200e-08,-0.02,0.004,-0.54,-0.92
9.1600e-08,-0.02,-0.004,-0.58,-0.92
9.2000e-08,-0.004,-0.012,-0.58,-0.92
9.2400e-08,-0.012,0.004,-0.54,-0.88
9.2800e-08,-0.02,-0.004,-0.54,-0.92
9.3200e-08,-0.02,0.004,-0.58,-0.92
9.3600e-08,-0.02,0.004,-0.54,-0.92
9.4000e-08,-0.036,-0.004,-0.5,-0.88
9.4400e-08,-0.036,0.004,-0.54,-0.92
9.4800e-08,-0.028,-0.004,-0.5,-0.84
9.5200e-08,-0.036,-0.004,-0.54,-0.84
