data/cube9-cerenkov-scint-signal/DataLog_4966.csv

Model,MDO4034C
Firmware Version,1.10

Waveform Type,ANALOG,,,
Point Format,Y,,,
Horizontal Units,s,,,
Horizontal Scale,4e-07,,,
Horizontal Delay,1.874e-06,,,
Sample Interval,4e-10,,,
Record Length,10000,,,
Gating,0.0% to 100.0%,,,
Probe Attenuation,1,1,1,1
Vertical Units,V,V,V,V
Vertical Offset,0,0,0,0
Vertical Scale,0.2,0.2,1,1
Vertical Position,4.02,4.02,1.06,1.04
,,,,
,,,,
,,,,
Label,,,,
TIME,CH1,CH2,CH3,CH4
-1.2600e-07,-0.004,-0.004,-0.02,0
-1.2560e-07,-0.004,-0.012,-0.02,0
-1.2520e-07,-0.004,0.004,-0.02,0.04
-1.2480e-07,0.004,0.004,0.02,0.04
-1.2440e-07,0.004,-0.004,0.02,0
-1.2400e-07,0.004,-0.012,0.02,0
-1.2360e-07,-0.004,0.004,-0.02,0
-1.2320e-07,0.004,0.004,0.02,0.04
-1.2280e-07,0.004,0.004,-0.02,0
-1.2240e-07,0.004,-0.004,0.02,0.04
-1.2200e-07,-0.004,0.004,0.02,0
-1.2160e-07,-0.004,0.004,0.02,0
-1.2120e-07,-0.004,0.004,0.02,0
-1.2080e-07,0.004,-0.004,0.02,0.04
-1.2040e-07,-0.004,0.004,-0.02,0
-1.2000e-07,-0.004,-0.004,0.02,0.04
-1.1960e-07,-0.004,-0.004,-0.02,0
-1.1920e-07,0.004,-0.004,-0.02,0
-1.1880e-07,-0.004,-0.004,-0.02,0.04
-1.1840e-07,-0.004,0.004,-0.02,0
-1.1800e-07,-0.004,-0.004,0.02,0
-1.1760e-07,0.004,-0.004,0.06,0.04
-1.1720e-07,0.004,0.004,-0.02,0
-1.1680e-07,-0.004,-0.012,-0.02,0
-1.1640e-07,-0.004,0.004,0.02,-0.04
-1.1600e-07,0.004,0.004,0.02,0
-1.1560e-07,-0.004,-0.004,0.02,0
-1.1520e-07,-0.004,0.004,0.06,0
-1.1480e-07,-0.004,0.004,-0.02,0.04
-1.1440e-07,-0.004,0.004,0.02,0
-1.1400e-07,-0.012,0.004,0.02,0
-1.1360e-07,-0.012,-0.004,0.02,-0.04
-1.1320e-07,-0.004,-0.004,-0.02,0
-1.1280e-07,0.004,-0.004,0.02,0
-1.1240e-07,-0.004,-0.012,0.02,0
-1.1200e-07,0.004,-0.004,0.02,0.04
-1.1160e-07,-0.004,-0.004,0.02,0.04
-1.1120e-07,0.012,-0.004,-0.02,0.08
-1.1080e-07,-0.004,-0.004,-0.02,0
-1.1040e-07,0.004,-0.004,0.02,0.04
-1.1000e-07,0.004,0.004,0.02,0.04
-1.0960e-07,0.004,-0.004,-0.02,0.04
-1.0920e-07,-0.004,-0.004,-0.02,0.04
-1.0880e-07,-0.012,-0.004,-0.02,0
-1.0840e-07,-0.012,0.004,0.02,-0.04
-1.0800e-07,0.004,-0.004,-0.02,-0.04
-1.0760e-07,-0.004,-0.004,0.02,0
-1.0720e-07,-0.004,0.004,0.02,0
-1.0680e-07,0.004,-0.004,-0.02,0
-1.0640e-07,-0.004,-0.004,-0.02,0
-1.0600e-07,0.004,-0.004,-0.02,0.04
-1.0560e-07,-0.004,0.004,-0.02,0.04
-1.0520e-07,-0.004,0.004,-0.02,0.04
-1.0480e-07,-0.004,0.004,0.02,0
-1.0440e-07,0.004,0.004,0.02,0
-1.0400e-07,0.004,0.004,-0.02,0
-1.0360e-07,-0.004,-0.004,-0.02,0
-1.0320e-07,-0.004,0.004,0.06,0
-1.0280e-07,0.004,-0.004,0.02,-0.04
-1.0240e-07,-0.004,-0.004,-0.02,0
-1.0200e-07,0.004,-0.004,-0.02,0
-1.0160e-07,0.004,-0.004,-0.02,0
-1.0120e-07,-0.004,-0.004,0.02,0.04
-1.0080e-07,-0.004,-0.012,-0.02,0.04
-1.0040e-07,0.004,-0.004,-0.02,0
-1.0000e-07,-0.004,0.004,-0.02,0.04
-9.9600e-08,-0.012,0.012,0.02,0.04
-9.9200e-08,-0.004,0.004,0.02,0
-9.8800e-08,0.004,-0.004,-0.02,0
-9.8400e-08,-0.012,-0.004,0.02,0.04
-9.8000e-08,-0.004,0.004,0.02,0.04
-9.7600e-08,-0.004,-0.004,0.02,0
-9.7200e-08,-0.004,-0.004,0.02,0
-9.6800e-08,0.004,-0.004,-0.02,0
-9.6400e-08,-0.004,-0.004,-0.02,-0.04
-9.6000e-08,-0.004,-0.004,0.02,-0.04
-9.5600e-08,-0.004,-0.004,-0.02,0
-9.5200e-08,0.004,-0.004,0.06,0
-9.4800e-08,-0.004,0.004,0.02,0
-9.4400e-08,-0.004,0.004,0.02,0.04
-9.4000e-08,-0.004,0.004,0.02,0.04
-9.3600e-08,-0.004,-0.004,0.02,0
-9.3200e-08,-0.004,0.004,0.02,0.04
-9.2800e-08,0.004,0.004,-0.02,0.04
-9.2400e-08,0.004,0.004,0.06,0
-9.2000e-08,0.004,0.004,0.02,0
-9.1600e-08,0.004,-0.004,0.02,0
-9.1200e-08,-0.004,0.004,0.02,0.04
-9.0800e-08,0.004,-0.004,0.02,0.04
-9.0400e-08,0.004,0.004,0.02,0
-9.0000e-08,-0.004,0.004,0.02,0.04
-8.9600e-08,-0.004,-0.004,0.06,0
-8.9200e-08,-0.004,-0.004,0.02,0
-8.8800e-08,-0.004,0.004,0.02,0.04
-8.8400e-08,-0.004,-0.004,0.02,0
-8.8000e-08,0.004,-0.004,0.02,0
-8.7600e-08,0.004,-0.012,-0.02,0
-8.7200e-08,0.012,0.004,0.02,0.08
-8.6800e-08,0.004,0.004,0.02,0
-8.6400e-08,-0.012,0.004,0.02,0.04
-8.6000e-08,-0.004,-0.012,0.02,0
-8.5600e-08,-0.004,-0.004,0.02,0
-8.5200e-08,0.004,-0.004,-0.02,0
-8.4800e-08,0.004,-0.004,0.06,0
-8.4400e-08,0.004,-0.004,0.02,0.04
-8.4000e-08,-0.004,-0.012,0.02,0.04
-8.3600e-08,0.004,-0.004,0.02,-0.04
-8.3200e-08,0.004,0.004,0.02,0.04
-8.2800e-08,-0.004,-0.004,0.02,0
-8.2400e-08,-0.004,-0.004,0.02,0.04
-8.2000e-08,0.004,0.004,0.06,0
-8.1600e-08,0.004,0.004,0.06,0
-8.1200e-08,-0.004,-0.004,0.02,0
-8.0800e-08,-0.004,0.004,0.02,0
-8.0400e-08,0.004,-0.004,-0.02,0
-8.0000e-08,0.004,0.004,0.02,0
-7.9600e-08,0.004,0.004,0.02,0
-7.9200e-08,0.004,0.004,0.02,0
-7.8800e-08,-0.004,0.004,0.02,0
-7.8400e-08,-0.004,-0.004,-0.06,-0.04
-7.8000e-08,0.004,-0.004,-0.02,0
-7.7600e-08,-0.012,-0.004,0.02,0
-7.7200e-08,-0.004,-0.004,0.02,0.04
-7.6800e-08,-0.004,-0.004,0.02,0.04
-7.6400e-08,-0.004,-0.004,0.02,0
-7.6000e-08,-0.012,-0.004,-0.02,0.04
-7.5600e-08,0.004,-0.004,-0.02,0.04
-7.5200e-08,-0.012,0.004,0.02,0
-7.4800e-08,-0.004,-0.004,0.02,0.04
-7.4400e-08,-0.012,0.004,-0.02,0
-7.4000e-08,-0.004,0.004,-0.02,0.08
-7.3600e-08,-0.004,-0.004,-0.06,0.04
-7.3200e-08,-0.004,-0.004,0.02,0
-7.2800e-08,0.004,0.004,0.02,0
-7.2400e-08,-0.004,-0.004,0.06,0
-7.2000e-08,-0.004,-0.004,0.02,0.04
-7.1600e-08,0.004,-0.004,-0.02,0.04
-7.1200e-08,-0.004,-0.004,-0.02,0.04
-7.0800e-08,-0.004,0.004,0.02,0
-7.0400e-08,-0.004,0.004,-0.02,0
-7.0000e-08,0.004,-0.004,-0.02,0
-6.9600e-08,-0.004,-0.004,-0.02,0
-6.9200e-08,0.004,0.004,-0.02,0.04
-6.8800e-08,-0.004,0.004,0.02,0
-6.8400e-08,-0.012,-0.004,0.02,0
-6.8000e-08,0.004,0.004,-0.02,-0.08
-6.7600e-08,0.012,0.004,-0.02,0
-6.7200e-08,0.004,-0.004,-0.02,-0.04
-6.6800e-08,0.012,-0.004,0.02,0
-6.6400e-08,-0.004,-0.004,-0.02,0
-6.6000e-08,-0.004,0.004,-0.02,0
-6.5600e-08,-0.004,0.004,-0.02,0
-6.5200e-08,0.004,0.004,-0.02,0.04
-6.4800e-08,0.004,-0.012,0.02,0.04
-6.4400e-08,-0.004,-0.004,0.02,0.04
-6.4000e-08,-0.004,-0.004,0.02,0
-6.3600e-08,-0.004,-0.004,0.02,0
-6.3200e-08,-0.004,-0.004,0.02,0
-6.2800e-08,-0.004,-0.004,0.02,0.04
-6.2400e-08,-0.004,0.004,0.02,0.04
-6.2000e-08,-0.004,-0.004,-0.02,0
-6.1600e-08,0.012,-0.004,0.02,0
-6.1200e-08,-0.012,-0.004,0.02,0.04
-6.0800e-08,-0.004,0.004,0.06,0
-6.0400e-08,-0.004,0.004,0.02,0
-6.0000e-08,-0.004,-0.004,-0.06,0.04
-5.9600e-08,0.004,-0.004,-0.02,0.04
-5.9200e-08,0.004,-0.004,0.02,0.04
-5.8800e-08,0.004,-0.004,0.02,0.04
-5.8400e-08,-0.004,0.004,0.02,-0.04
-5.8000e-08,0.004,-0.004,0.02,0.04
-5.7600e-08,-0.004,-0.004,0.02,0
-5.7200e-08,-0.004,0.004,-0.06,0
-5.6800e-08,0.004,-0.004,-0.02,0.04
-5.6400e-08,-0.004,-0.004,0.02,0
-5.6000e-08,0.004,-0.004,0.02,0
-5.5600e-08,-0.004,-0.004,0.02,0
-5.5200e-08,-0.004,0.004,-0.02,0.04
-5.4800e-08,-0.004,-0.004,-0.02,0.04
-5.4400e-08,0.004,-0.004,-0.02,0
-5.4000e-08,-0.004,0.004,0.02,0.04
-5.3600e-08,-0.004,-0.004,-0.02,0.04
-5.3200e-08,-0.004,-0.004,0.02,0
-5.2800e-08,0.012,-0.004,0.02,0.04
-5.2400e-08,-0.004,-0.004,-0.02,0.04
-5.2000e-08,-0.004,-0.004,-0.02,0.08
-5.1600e-08,-0.004,-0.004,0.02,0.04
-5.1200e-08,-0.004,0.004,0.02,0
-5.0800e-08,0.004,0.004,0.02,0
-5.0400e-08,-0.004,-0.004,0.02,0.04
-5.0000e-08,0.004,-0.004,0.02,0.04
-4.9600e-08,-0.004,-0.004,-0.02,0.04
-4.9200e-08,0.004,-0.004,0.06,0.04
-4.8800e-08,-0.004,-0.004,0.02,0
-4.8400e-08,-0.004,0.004,0.02,0
-4.8000e-08,-0.004,0.004,-0.02,0
-4.7600e-08,0.004,-0.004,0.02,0
-4.7200e-08,0.004,-0.012,0.02,0
-4.6800e-08,-0.004,0.004,-0.02,0.04
-4.6400e-08,-0.012,-0.004,0.02,0.04
-4.6000e-08,-0.004,0.004,0.02,0
-4.5600e-08,-0.004,0.004,-0.02,0
-4.5200e-08,0.004,0.004,0.02,0
-4.4800e-08,-0.012,-0.004,0.02,0
-4.4400e-08,-0.004,-0.004,0.06,0
-4.4000e-08,0.004,-0.004,-0.02,0
-4.3600e-08,-0.004,-0.004,0.02,0
-4.3200e-08,-0.004,0.012,-0.02,0
-4.2800e-08,0.004,0.004,-0.02,0
-4.2400e-08,0.004,0.004,-0.02,0
-4.2000e-08,0.004,-0.004,0.02,0.04
-4.1600e-08,0.004,-0.004,0.02,0
-4.1200e-08,-0.004,-0.004,0.06,0
-4.0800e-08,-0.004,-0.004,0.06,0
-4.0400e-08,-0.004,-0.004,0.02,0
-4.0000e-08,-0.004,-0.004,0.02,0
-3.9600e-08,-0.004,0.004,-0.02,0
-3.9200e-08,-0.004,0.004,-0.02,0
-3.8800e-08,-0.012,0.004,0.02,0.04
-3.8400e-08,0.004,0.004,0.02,0
-3.8000e-08,0.004,-0.004,-0.02,0.04
-3.7600e-08,-0.004,-0.004,-0.02,0.04
-3.7200e-08,0.004,-0.004,-0.02,0
-3.6800e-08,0.004,-0.004,0.02,0
-3.6400e-08,0.004,-0.004,-0.02,0.04
-3.6000e-08,0.004,-0.004,0.02,0
-3.5600e-08,-0.004,-0.004,0.06,0
-3.5200e-08,-0.004,0.004,0.02,0
-3.4800e-08,-0.004,0.004,-0.02,-0.04
-3.4400e-08,-0.004,0.004,0.02,0
-3.4000e-08,-0.004,0.004,0.02,0
-3.3600e-08,-0.004,-0.004,-0.02,0.04
-3.3200e-08,-0.004,-0.004,-0.02,0
-3.2800e-08,0.004,-0.004,-0.02,0.04
-3.2400e-08,0.004,0.004,-0.02,0.04
-3.2000e-08,0.004,-0.004,-0.02,0.04
-3.1600e-08,-0.004,0.004,0.02,0.04
-3.1200e-08,-0.004,0.004,0.02,0
-3.0800e-08,-0.012,-0.004,0.02,0
-3.0400e-08,-0.004,0.004,0.02,0
-3.0000e-08,-0.004,-0.004,-0.02,0
-2.9600e-08,-0.004,-0.012,-0.02,0.04
-2.9200e-08,-0.004,0.004,-0.02,0
-2.8800e-08,0.004,-0.004,-0.02,0
-2.8400e-08,0.004,-0.012,0.02,0.04
-2.8000e-08,-0.004,-0.004,0.02,0
-2.7600e-08,-0.012,0.004,-0.02,0.04
-2.7200e-08,-0.004,-0.004,0.02,0
-2.6800e-08,0.004,-0.004,0.02,0.04
-2.6400e-08,-0.004,-0.004,0.02,0
-2.6000e-08,-0.004,-0.004,0.02,0
-2.5600e-08,-0.012,0.004,0.06,0
-2.5200e-08,-0.004,-0.004,-0.02,0
-2.4800e-08,0.004,-0.004,-0.02,0.04
-2.4400e-08,-0.004,0.004,0.02,0
-2.4000e-08,-0.004,0.004,-0.02,0
-2.3600e-08,0.004,-0.004,0.02,0
-2.3200e-08,0.004,-0.004,-0.02,0.04
-2.2800e-08,-0.004,0.004,-0.02,0
-2.2400e-08,-0.004,-0.004,-0.02,0.04
-2.2000e-08,-0.004,-0.004,0.02,0
-2.1600e-08,-0.004,0.004,-0.02,0.04
-2.1200e-08,-0.004,0.004,-0.02,0
-2.0800e-08,-0.004,-0.004,0.02,0
-2.0400e-08,-0.004,-0.004,-0.02,0.08
-2.0000e-08,-0.004,0.004,0.02,0.04
-1.9600e-08,0.004,-0.004,-0.02,0
-1.9200e-08,-0.004,-0.004,-0.02,0
-1.8800e-08,-0.004,0.004,0.02,0
-1.8400e-08,-0.004,-0.004,0.02,0
-1.8000e-08,-0.004,0.004,0.02,0
-1.7600e-08,0.004,0.004,-0.02,0.04
-1.7200e-08,-0.012,-0.004,0.02,0
-1.6800e-08,0.004,-0.012,0.02,0.04
-1.6400e-08,-0.004,-0.004,0.02,0.04
-1.6000e-08,0.004,-0.004,0.02,0.04
-1.5600e-08,0.004,0.004,-0.02,0.04
-1.5200e-08,-0.004,-0.004,0.1,0.04
-1.4800e-08,-0.004,-0.004,-0.02,0
-1.4400e-08,0.004,0.004,0.02,0.04
-1.4000e-08,0.004,0.004,-0.02,0
-1.3600e-08,-0.012,-0.004,-0.02,0
-1.3200e-08,0.004,0.004,0.02,0.08
-1.2800e-08,0.004,0.004,-0.02,0
-1.2400e-08,-0.012,-0.004,-0.06,-0.04
-1.2000e-08,0.004,-0.004,-0.02,-0.04
-1.1600e-08,0.004,-0.004,-0.02,0
-1.1200e-08,-0.004,-0.004,-0.06,0
-1.0800e-08,0.004,0.004,-0.1,0
-1.0400e-08,0.004,0.004,-0.1,-0.08
-1.0000e-08,-0.004,0.004,-0.22,-0.12
-9.6000e-09,-0.004,-0.004,-0.3,-0.16
-9.2000e-09,-0.004,0.004,-0.34,-0.2
-8.8000e-09,0.004,-0.004,-0.38,-0.24
-8.4000e-09,0.004,-0.012,-0.5,-0.32
-8.0000e-09,0.004,0.004,-0.58,-0.44
-7.6000e-09,-0.004,-0.004,-0.66,-0.44
-7.2000e-09,-0.004,0.004,-0.66,-0.56
-6.8000e-09,-0.004,-0.004,-0.78,-0.64
-6.4000e-09,0.004,0.004,-0.86,-0.68
-6.0000e-09,0.004,-0.004,-0.94,-0.8
-5.6000e-09,-0.012,0.004,-1.02,-0.84
-5.2000e-09,-0.004,-0.004,-1.1,-0.92
-4.8000e-09,0.004,0.004,-1.14,-1
-4.4000e-09,-0.004,-0.004,-1.18,-1.04
-4.0000e-09,0.004,0.004,-1.3,-1.12
-3.6000e-09,0.004,0.004,-1.38,-1.16
-3.2000e-09,-0.004,0.004,-1.42,-1.24
-2.8000e-09,-0.004,0.004,-1.46,-1.28
-2.4000e-09,0.004,-0.004,-1.54,-1.36
-2.0000e-09,-0.004,0.004,-1.54,-1.44
-1.6000e-09,0.004,0.004,-1.62,-1.48
-1.2000e-09,-0.004,0.004,-1.74,-1.56
-8.0000e-10,0.004,-0.004,-1.74,-1.56
-4.0000e-10,-0.012,-0.004,-1.82,-1.64
0.0000e+00,0.004,0.004,-1.82,-1.68
4.0000e-10,-0.004,-0.004,-1.9,-1.72
8.0000e-10,-0.004,-0.004,-1.94,-1.8
1.2000e-09,-0.004,-0.004,-1.94,-1.84
1.6000e-09,0.004,0.004,-1.98,-1.84
2.0000e-09,-0.004,0.004,-2.02,-1.92
2.4000e-09,-0.004,-0.004,-2.06,-1.96
2.8000e-09,-0.012,0.004,-2.1,-2
3.2000e-09,-0.012,-0.004,-2.1,-2.04
3.6000e-09,-0.012,0.004,-2.14,-2.08
4.0000e-09,-0.012,0.004,-2.22,-2.12
4.4000e-09,-0.044,0.004,-2.26,-2.12
4.8000e-09,-0.076,-0.012,-2.26,-2.2
5.2000e-09,-0.18,-0.028,-2.3,-2.16
5.6000e-09,-0.388,-0.052,-2.34,-2.2
6.0000e-09,-0.756,-0.1,-2.34,-2.28
6.4000e-09,-1.26,-0.212,-2.34,-2.28
6.8000e-09, -inf,-0.412,-2.38,-2.28
7.2000e-09, -inf,-0.668,-2.38,-2.32
7.6000e-09, -inf,-0.948,-2.46,-2.32
8.0000e-09, -inf,-1.188,-2.42,-2.36
8.4000e-09, -inf,-1.324,-2.46,-2.4
8.8000e-09, -inf,-1.3,-2.46,-2.4
9.2000e-09, -inf,-1.172,-2.5,-2.4
9.6000e-09,-1.772,-1.004,-2.5,-2.48
1.0000e-08,-1.364,-0.836,-2.58,-2.48
1.0400e-08,-1.02,-0.716,-2.58,-2.48
1.0800e-08,-0.852,-0.628,-2.58,-2.52
1.1200e-08,-0.756,-0.564,-2.62,-2.56
1.1600e-08,-0.676,-0.516,-2.62,-2.56
1.2000e-08,-0.572,-0.484,-2.62,-2.56
1.2400e-08,-0.484,-0.468,-2.62,-2.52
1.2800e-08,-0.428,-0.444,-2.7,-2.56
1.3200e-08,-0.388,-0.42,-2.66,-2.56
1.3600e-08,-0.38,-0.42,-2.66,-2.6
1.4000e-08,-0.38,-0.404,-2.66,-2.56
1.4400e-08,-0.404,-0.388,-2.7,-2.64
1.4800e-08,-0.396,-0.364,-2.7,-2.6
1.5200e-08,-0.38,-0.356,-2.66,-2.68
1.5600e-08,-0.348,-0.34,-2.74,-2.64
1.6000e-08,-0.316,-0.316,-2.7,-2.64
1.6400e-08,-0.268,-0.3,-2.66,-2.68
1.6800e-08,-0.244,-0.284,-2.7,-2.6
1.7200e-08,-0.22,-0.284,-2.7,-2.64
1.7600e-08,-0.212,-0.252,-2.74,-2.64
1.8000e-08,-0.196,-0.244,-2.74,-2.68
1.8400e-08,-0.22,-0.236,-2.7,-2.72
1.8800e-08,-0.228,-0.212,-2.74,-2.72
1.9200e-08,-0.236,-0.212,-2.7,-2.72
1.9600e-08,-0.244,-0.212,-2.78,-2.68
2.0000e-08,-0.244,-0.204,-2.74,-2.68
2.0400e-08,-0.244,-0.188,-2.74,-2.72
2.0800e-08,-0.244,-0.188,-2.78,-2.72
2.1200e-08,-0.244,-0.196,-2.74,-2.72
2.1600e-08,-0.236,-0.196,-2.7,-2.72
2.2000e-08,-0.228,-0.196,-2.78,-2.68
2.2400e-08,-0.22,-0.196,-2.7,-2.72
2.2800e-08,-0.212,-0.188,-2.7,-2.72
2.3200e-08,-0.212,-0.188,-2.74,-2.72
2.3600e-08,-0.212,-0.188,-2.7,-2.72
2.4000e-08,-0.204,-0.196,-2.66,-2.68
2.4400e-08,-0.204,-0.204,-2.78,-2.72
2.4800e-08,-0.196,-0.22,-2.74,-2.68
2.5200e-08,-0.188,-0.22,-2.7,-2.68
2.5600e-08,-0.172,-0.212,-2.74,-2.72
2.6000e-08,-0.164,-0.22,-2.78,-2.72
2.6400e-08,-0.156,-0.204,-2.74,-2.68
2.6800e-08,-0.156,-0.196,-2.7,-2.68
2.7200e-08,-0.14,-0.18,-2.7,-2.68
2.7600e-08,-0.132,-0.188,-2.74,-2.72
2.8000e-08,-0.124,-0.172,-2.78,-2.68
2.8400e-08,-0.124,-0.18,-2.74,-2.68
2.8800e-08,-0.132,-0.18,-2.78,-2.64
2.9200e-08,-0.14,-0.172,-2.74,-2.64
2.9600e-08,-0.14,-0.164,-2.66,-2.68
3.0000e-08,-0.148,-0.164,-2.7,-2.68
3.0400e-08,-0.148,-0.164,-2.74,-2.68
3.0800e-08,-0.14,-0.172,-2.7,-2.64
3.1200e-08,-0.14,-0.18,-2.7,-2.64
3.1600e-08,-0.116,-0.188,-2.74,-2.64
3.2000e-08,-0.124,-0.18,-2.7,-2.64
3.2400e-08,-0.116,-0.18,-2.66,-2.68
3.2800e-08,-0.116,-0.172,-2.66,-2.64
3.3200e-08,-0.116,-0.172,-2.7,-2.6
3.3600e-08,-0.108,-0.172,-2.7,-2.64
3.4000e-08,-0.116,-0.148,-2.66,-2.6
3.4400e-08,-0.124,-0.14,-2.7,-2.64
3.4800e-08,-0.108,-0.132,-2.7,-2.6
3.5200e-08,-0.1,-0.14,-2.66,-2.64
3.5600e-08,-0.092,-0.132,-2.66,-2.6
3.6000e-08,-0.092,-0.132,-2.66,-2.64
3.6400e-08,-0.092,-0.124,-2.66,-2.6
3.6800e-08,-0.084,-0.124,-2.7,-2.64
3.7200e-08,-0.076,-0.14,-2.66,-2.6
3.7600e-08,-0.076,-0.14,-2.7,-2.56
3.8000e-08,-0.076,-0.124,-2.66,-2.56
3.8400e-08,-0.084,-0.124,-2.66,-2.56
3.8800e-08,-0.084,-0.124,-2.66,-2.56
3.9200e-08,-0.084,-0.132,-2.66,-2.56
3.9600e-08,-0.084,-0.124,-2.62,-2.52
4.0000e-08,-0.084,-0.116,-2.66,-2.6
4.0400e-08,-0.084,-0.1,-2.62,-2.6
4.0800e-08,-0.084,-0.1,-2.66,-2.56
4.1200e-08,-0.092,-0.1,-2.62,-2.56
4.1600e-08,-0.108,-0.1,-2.66,-2.56
4.2000e-08,-0.1,-0.1,-2.66,-2.56
4.2400e-08,-0.1,-0.092,-2.66,-2.6
4.2800e-08,-0.092,-0.1,-2.66,-2.6
4.3200e-08,-0.084,-0.076,-2.66,-2.6
4.3600e-08,-0.092,-0.076,-2.66,-2.56
4.4000e-08,-0.092,-0.06,-2.62,-2.56
4.4400e-08,-0.108,-0.06,-2.62,-2.6
4.4800e-08,-0.108,-0.06,-2.62,-2.56
4.5200e-08,-0.116,-0.052,-2.62,-2.52
4.5600e-08,-0.108,-0.068,-2.58,-2.56
4.6000e-08,-0.108,-0.068,-2.66,-2.56
4.6400e-08,-0.1,-0.076,-2.66,-2.56
4.6800e-08,-0.084,-0.084,-2.62,-2.56
4.7200e-08,-0.084,-0.108,-2.58,-2.56
4.7600e-08,-0.092,-0.108,-2.58,-2.56
4.8000e-08,-0.084,-0.1,-2.58,-2.56
4.8400e-08,-0.084,-0.108,-2.58,-2.56
4.8800e-08,-0.084,-0.108,-2.62,-2.56
4.9200e-08,-0.1,-0.108,-2.58,-2.56
4.9600e-08,-0.1,-0.116,-2.58,-2.56
5.0000e-08,-0.108,-0.124,-2.58,-2.52
5.0400e-08,-0.108,-0.148,-2.58,-2.56
5.0800e-08,-0.1,-0.164,-2.62,-2.52
5.1200e-08,-0.084,-0.172,-2.62,-2.52
5.1600e-08,-0.076,-0.164,-2.62,-2.52
5.2000e-08,-0.068,-0.164,-2.62,-2.56
5.2400e-08,-0.06,-0.148,-2.58,-2.56
5.2800e-08,-0.06,-0.132,-2.58,-2.56
5.3200e-08,-0.052,-0.124,-2.58,-2.52
5.3600e-08,-0.06,-0.116,-2.58,-2.52
5.4000e-08,-0.076,-0.124,-2.66,-2.52
5.4400e-08,-0.076,-0.132,-2.62,-2.52
5.4800e-08,-0.084,-0.124,-2.62,-2.52
5.5200e-08,-0.084,-0.116,-2.58,-2.48
5.5600e-08,-0.084,-0.124,-2.58,-2.48
5.6000e-08,-0.1,-0.108,-2.58,-2.52
5.6400e-08,-0.084,-0.092,-2.58,-2.52
5.6800e-08,-0.084,-0.092,-2.54,-2.56
5.7200e-08,-0.076,-0.084,-2.58,-2.52
5.7600e-08,-0.068,-0.076,-2.58,-2.52
5.8000e-08,-0.06,-0.084,-2.54,-2.48
5.8400e-08,-0.052,-0.076,-2.58,-2.52
5.8800e-08,-0.06,-0.084,-2.54,-2.52
5.9200e-08,-0.052,-0.076,-2.58,-2.48
5.9600e-08,-0.052,-0.076,-2.58,-2.44
6.0000e-08,-0.052,-0.068,-2.58,-2.44
6.0400e-08,-0.052,-0.06,-2.58,-2.44
6.0800e-08,-0.052,-0.052,-2.62,-2.44
6.1200e-08,-0.06,-0.044,-2.58,-2.48
6.1600e-08,-0.06,-0.044,-2.54,-2.48
6.2000e-08,-0.052,-0.052,-2.54,-2.48
6.2400e-08,-0.044,-0.036,-2.54,-2.44
6.2800e-08,-0.052,-0.044,-2.54,-2.44
6.3200e-08,-0.044,-0.036,-2.54,-2.48
6.3600e-08,-0.044,-0.052,-2.58,-2.52
6.4000e-08,-0.036,-0.06,-2.54,-2.48
6.4400e-08,-0.044,-0.068,-2.54,-2.48
6.4800e-08,-0.044,-0.076,-2.5,-2.52
6.5200e-08,-0.044,-0.076,-2.58,-2.56
6.5600e-08,-0.036,-0.068,-2.5,-2.52
6.6000e-08,-0.036,-0.076,-2.58,-2.56
6.6400e-08,-0.052,-0.068,-2.54,-2.52
6.6800e-08,-0.052,-0.068,-2.58,-2.52
6.7200e-08,-0.06,-0.068,-2.54,-2.48
6.7600e-08,-0.076,-0.084,-2.58,-2.36
6.8000e-08,-0.06,-0.092,-2.54,-2.28
6.8400e-08,-0.068,-0.092,-2.54,-2.16
6.8800e-08,-0.06,-0.116,-2.54,-2.12
6.9200e-08,-0.052,-0.116,-2.54,-2
6.9600e-08,-0.052,-0.124,-2.54,-2
7.0000e-08,-0.052,-0.116,-2.54,-2
7.0400e-08,-0.052,-0.116,-2.5,-1.92
7.0800e-08,-0.044,-0.108,-2.54,-1.88
7.1200e-08,-0.036,-0.1,-2.54,-1.84
7.1600e-08,-0.036,-0.108,-2.54,-1.8
7.2000e-08,-0.036,-0.1,-2.54,-1.8
7.2400e-08,-0.036,-0.108,-2.46,-1.76
7.2800e-08,-0.036,-0.108,-2.46,-1.8
7.3200e-08,-0.036,-0.116,-2.54,-1.72
7.3600e-08,-0.036,-0.124,-2.5,-1.72
7.4000e-08,-0.036,-0.132,-2.5,-1.76
7.4400e-08,-0.036,-0.14,-2.46,-1.72
7.4800e-08,-0.036,-0.132,-2.46,-1.68
7.5200e-08,-0.036,-0.14,-2.46,-1.64
7.5600e-08,-0.044,-0.124,-2.5,-1.64
7.6000e-08,-0.036,-0.124,-2.5,-1.68
7.6400e-08,-0.052,-0.1,-2.54,-1.64
7.6800e-08,-0.06,-0.092,-2.54,-1.6
7.7200e-08,-0.06,-0.092,-2.54,-1.6
7.7600e-08,-0.068,-0.092,-2.54,-1.6
7.8000e-08,-0.068,-0.084,-2.58,-1.48
7.8400e-08,-0.06,-0.076,-2.54,-1.56
7.8800e-08,-0.068,-0.076,-2.58,-1.52
7.9200e-08,-0.052,-0.076,-2.54,-1.48
7.9600e-08,-0.076,-0.076,-2.54,-1.48
8.0000e-08,-0.068,-0.076,-2.42,-1.52
8.0400e-08,-0.06,-0.076,-2.26,-1.44
8.0800e-08,-0.06,-0.076,-2.14,-1.44
8.1200e-08,-0.06,-0.076,-1.94,-1.48
8.1600e-08,-0.052,-0.076,-1.78,-1.48
8.2000e-08,-0.052,-0.084,-1.82,-1.4
8.2400e-08,-0.052,-0.084,-1.78,-1.44
8.2800e-08,-0.052,-0.1,-1.74,-1.4
8.3200e-08,-0.044,-0.1,-1.74,-1.4
8.3600e-08,-0.044,-0.1,-1.74,-1.32
8.4000e-08,-0.044,-0.092,-1.7,-1.32
8.4400e-08,-0.028,-0.084,-1.7,-1.32
8.4800e-08,-0.036,-0.084,-1.66,-1.32
8.5200e-08,-0.02,-0.076,-1.66,-1.36
8.5600e-08,-0.02,-0.06,-1.7,-1.32
8.6000e-08,-0.02,-0.06,-1.66,-1.32
8.6400e-08,-0.02,-0.044,-1.62,-1.28
8.6800e-08,-0.012,-0.036,-1.58,-1.24
8.7200e-08,-0.02,-0.036,-1.58,-1.28
8.7600e-08,-0.02,-0.028,-1.58,-1.24
8.8000e-08,-0.02,-0.028,-1.62,-1.24
8.8400e-08,-0.02,-0.028,-1.54,-1.24
8.8800e-08,-0.028,-0.028,-1.5,-1.24
8.9200e-08,-0.02,-0.036,-1.5,-1.2
8.9600e-08,-0.036,-0.044,-1.5,-1.2
9.0000e-08,-0.036,-0.052,-1.46,-1.16
9.0400e-08,-0.028,-0.06,-1.42,-1.16
9.0800e-08,-0.028,-0.06,-1.38,-1.16
9.1200e-08,-0.028,-0.068,-1.42,-1.16
9.1600e-08,-0.036,-0.06,-1.42,-1.12
9.2000e-08,-0.028,-0.052,-1.3,-1.12
9.2400e-08,-0.036,-0.052,-1.38,-1.08
9.2800e-08,-0.036,-0.044,-1.38,-1.12
9.3200e-08,-0.036,-0.052,-1.34,-1.08
9.3600e-08,-0.028,-0.044,-1.34,-1.12
9.4000e-08,-0.028,-0.044,-1.34,-1.08
9.4400e-08,-0.036,-0.044,-1.34,-1.12
9.4800e-08,-0.028,-0.036,-1.34,-1.12
9.5200e-08,-0.028,-0.036,-1.26,-1.08
9.5600e-08,-0.028,-0.028,-1.3,-1.08
9.6000e-08,-0.028,-0.028,-1.26,-1.04
9.6400e-08,-0.028,-0.036,-1.3,-1.04
9.6800e-08,-0.036,-0.036,-1.26,-1.04
9.7200e-08,-0.028,-0.036,-1.26,-1.04
