data/cube9-cerenkov-scint-signal/DataLog_426.csv

Model,MDO4034C
Firmware Version,1.10

Waveform Type,ANALOG,,,
Point Format,Y,,,
Horizontal Units,s,,,
Horizontal Scale,4e-07,,,
Horizontal Delay,1.874e-06,,,
Sample Interval,4e-10,,,
Record Length,10000,,,
Gating,0.0% to 100.0%,,,
Probe Attenuation,1,1,1,1
Vertical Units,V,V,V,V
Vertical Offset,0,0,0,0
Vertical Scale,0.2,0.2,1,1
Vertical Position,4.02,4.02,1.06,1.04
,,,,
,,,,
,,,,
Label,,,,
TIME,CH1,CH2,CH3,CH4
-1.2600e-07,-0.004,-0.004,0.02,0
-1.2560e-07,-0.004,-0.004,-0.02,0.04
-1.2520e-07,-0.004,-0.004,0.02,0
-1.2480e-07,-0.012,0.004,-0.02,0
-1.2440e-07,0.004,-0.012,0.02,0
-1.2400e-07,0.004,-0.004,-0.02,0
-1.2360e-07,0.004,-0.004,0.02,0.04
-1.2320e-07,0.004,-0.004,0.02,0.04
-1.2280e-07,0.004,0.004,0.02,0.04
-1.2240e-07,-0.004,-0.004,-0.02,0.08
-1.2200e-07,-0.004,-0.004,0.02,0.04
-1.2160e-07,0.004,-0.004,0.06,0.04
-1.2120e-07,-0.004,-0.004,0.02,0
-1.2080e-07,-0.012,-0.004,0.06,0.04
-1.2040e-07,0.004,-0.012,-0.02,0
-1.2000e-07,0.004,-0.004,-0.02,0
-1.1960e-07,-0.004,-0.004,0.02,0.04
-1.1920e-07,-0.004,-0.004,-0.02,0
-1.1880e-07,0.012,0.004,0.02,0
-1.1840e-07,-0.012,0.004,-0.02,0.04
-1.1800e-07,0.004,-0.004,0.02,0.04
-1.1760e-07,-0.004,-0.004,0.06,0.04
-1.1720e-07,-0.004,-0.004,0.02,0.04
-1.1680e-07,0.004,0.004,0.02,0
-1.1640e-07,0.004,-0.004,0.02,0
-1.1600e-07,0.012,0.012,0.02,0
-1.1560e-07,-0.004,0.004,0.02,0.04
-1.1520e-07,-0.004,0.004,0.06,0.04
-1.1480e-07,-0.004,0.004,0.02,0
-1.1440e-07,0.004,0.004,0.02,0.08
-1.1400e-07,0.004,-0.004,0.06,0.04
-1.1360e-07,0.004,-0.004,0.06,0.04
-1.1320e-07,0.004,0.004,0.06,0.04
-1.1280e-07,-0.004,-0.004,0.02,0.04
-1.1240e-07,0.012,-0.004,-0.02,0
-1.1200e-07,0.004,-0.004,0.02,0
-1.1160e-07,0.004,-0.004,0.06,0
-1.1120e-07,0.004,0.004,0.06,0
-1.1080e-07,0.004,0.004,0.06,0.04
-1.1040e-07,0.004,0.004,0.02,0
-1.1000e-07,0.004,0.004,-0.02,0
-1.0960e-07,-0.012,-0.004,0.06,-0.04
-1.0920e-07,-0.004,-0.004,0.02,0
-1.0880e-07,0.004,0.004,-0.02,0
-1.0840e-07,-0.004,0.004,0.02,0
-1.0800e-07,-0.004,0.004,0.02,0.04
-1.0760e-07,0.004,0.012,0.02,0
-1.0720e-07,0.004,-0.004,0.02,0
-1.0680e-07,0.004,0.004,0.02,0
-1.0640e-07,0.004,0.004,-0.02,0
-1.0600e-07,0.004,0.004,0.02,0.04
-1.0560e-07,-0.004,0.004,-0.02,0.04
-1.0520e-07,-0.004,0.004,0.02,0.04
-1.0480e-07,0.004,0.004,0.02,0
-1.0440e-07,0.004,0.004,-0.02,0
-1.0400e-07,-0.004,0.004,0.06,0.04
-1.0360e-07,0.004,0.004,-0.02,0.04
-1.0320e-07,0.004,-0.012,-0.02,0
-1.0280e-07,-0.004,-0.004,0.02,0
-1.0240e-07,-0.004,-0.004,0.02,0.04
-1.0200e-07,-0.004,0.004,0.02,0.04
-1.0160e-07,0.004,-0.012,0.02,0
-1.0120e-07,0.004,-0.004,-0.02,0.04
-1.0080e-07,-0.004,0.004,0.06,0
-1.0040e-07,0.004,-0.004,-0.02,0
-1.0000e-07,0.004,-0.012,0.02,-0.04
-9.9600e-08,0.004,-0.004,0.02,-0.04
-9.9200e-08,-0.004,0.004,0.02,0
-9.8800e-08,0.004,-0.004,-0.02,0.04
-9.8400e-08,0.004,0.004,0.02,0.04
-9.8000e-08,0.012,0.004,-0.02,0
-9.7600e-08,-0.004,-0.004,0.02,0.04
-9.7200e-08,0.004,0.004,0.02,0.04
-9.6800e-08,-0.004,0.004,-0.02,0
-9.6400e-08,-0.004,-0.004,-0.02,0.04
-9.6000e-08,-0.004,-0.004,-0.02,0
-9.5600e-08,-0.012,0.004,0.02,0
-9.5200e-08,0.012,0.004,0.06,0.04
-9.4800e-08,0.004,0.004,0.02,0.04
-9.4400e-08,-0.004,-0.004,0.02,0
-9.4000e-08,0.004,0.012,0.02,0
-9.3600e-08,0.012,0.004,0.02,0.04
-9.3200e-08,0.004,-0.004,-0.02,0.04
-9.2800e-08,-0.004,0.004,-0.02,0.04
-9.2400e-08,0.004,-0.004,0.02,0
-9.2000e-08,0.004,0.004,0.02,0
-9.1600e-08,0.004,0.004,0.02,-0.04
-9.1200e-08,0.004,0.004,0.06,0
-9.0800e-08,-0.004,0.004,0.02,0.04
-9.0400e-08,-0.004,-0.004,-0.02,0.04
-9.0000e-08,-0.004,-0.004,-0.02,0.04
-8.9600e-08,0.004,-0.004,-0.02,0.04
-8.9200e-08,-0.004,-0.004,-0.02,0.04
-8.8800e-08,0.004,-0.012,-0.02,0
-8.8400e-08,0.004,-0.012,-0.02,0
-8.8000e-08,-0.004,-0.004,-0.02,0
-8.7600e-08,0.004,0.004,0.02,0.04
-8.7200e-08,0.004,-0.004,0.06,0.04
-8.6800e-08,0.004,-0.004,-0.02,0
-8.6400e-08,0.004,0.004,0.02,0.04
-8.6000e-08,0.004,0.004,0.02,0
-8.5600e-08,0.004,0.004,0.02,0.04
-8.5200e-08,0.004,-0.004,0.02,0
-8.4800e-08,0.004,-0.004,0.06,0
-8.4400e-08,0.012,-0.012,-0.02,0.04
-8.4000e-08,-0.004,-0.004,-0.02,0.04
-8.3600e-08,0.004,-0.004,0.02,0.08
-8.3200e-08,0.004,0.012,0.02,0.04
-8.2800e-08,0.004,0.004,0.02,0.04
-8.2400e-08,-0.004,0.004,0.02,0.04
-8.2000e-08,-0.004,-0.004,0.06,0.04
-8.1600e-08,-0.004,0.004,-0.02,0.04
-8.1200e-08,0.004,0.004,0.02,0
-8.0800e-08,0.004,-0.004,0.02,0
-8.0400e-08,-0.004,-0.012,0.06,0.04
-8.0000e-08,0.004,0.004,-0.02,0
-7.9600e-08,0.004,0.004,-0.02,0
-7.9200e-08,-0.004,-0.004,0.02,0
-7.8800e-08,-0.004,-0.004,0.02,0
-7.8400e-08,0.004,-0.004,-0.06,0.04
-7.8000e-08,-0.004,0.004,-0.02,0
-7.7600e-08,-0.004,-0.004,-0.02,0
-7.7200e-08,-0.004,0.004,-0.02,0
-7.6800e-08,0.004,-0.004,0.02,0
-7.6400e-08,0.004,-0.004,0.02,0
-7.6000e-08,0.004,0.004,0.02,0.04
-7.5600e-08,-0.004,-0.004,-0.02,0.04
-7.5200e-08,-0.004,0.004,0.02,0
-7.4800e-08,-0.004,-0.004,0.02,0
-7.4400e-08,-0.004,0.004,0.02,0
-7.4000e-08,0.004,0.004,0.02,0.08
-7.3600e-08,0.012,0.004,-0.02,0.08
-7.3200e-08,0.004,0.004,0.02,0.04
-7.2800e-08,0.004,-0.004,-0.02,0
-7.2400e-08,0.004,0.004,-0.02,0
-7.2000e-08,0.004,0.004,0.02,0
-7.1600e-08,0.004,0.004,-0.02,0
-7.1200e-08,0.004,-0.004,0.02,0.04
-7.0800e-08,0.004,-0.004,0.02,0
-7.0400e-08,-0.004,-0.004,0.02,0
-7.0000e-08,-0.004,0.004,0.02,0
-6.9600e-08,-0.004,0.004,-0.02,0.04
-6.9200e-08,-0.004,0.004,-0.02,0
-6.8800e-08,0.004,0.004,0.02,0
-6.8400e-08,-0.004,0.004,0.02,0.04
-6.8000e-08,-0.004,0.004,0.02,0
-6.7600e-08,-0.004,0.004,0.02,0
-6.7200e-08,-0.004,0.004,-0.02,0.04
-6.6800e-08,0.004,-0.004,0.06,0
-6.6400e-08,-0.004,0.004,0.02,0.04
-6.6000e-08,0.004,0.004,-0.02,0.04
-6.5600e-08,-0.004,0.004,0.02,0.04
-6.5200e-08,0.004,-0.004,-0.02,0
-6.4800e-08,0.004,0.004,-0.02,0
-6.4400e-08,0.004,-0.004,0.02,0.04
-6.4000e-08,-0.004,-0.004,0.02,0.04
-6.3600e-08,0.004,-0.004,0.02,0
-6.3200e-08,0.004,-0.004,0.02,0.04
-6.2800e-08,0.004,-0.004,-0.02,0
-6.2400e-08,0.004,-0.004,-0.02,0
-6.2000e-08,-0.004,0.004,0.02,0.04
-6.1600e-08,-0.004,-0.012,-0.02,0.04
-6.1200e-08,-0.004,-0.004,-0.02,0.04
-6.0800e-08,0.004,0.004,-0.06,0
-6.0400e-08,-0.004,0.004,-0.02,0
-6.0000e-08,-0.004,0.004,-0.02,0
-5.9600e-08,0.004,-0.004,-0.02,0.04
-5.9200e-08,-0.004,-0.004,-0.02,0.04
-5.8800e-08,-0.004,0.004,-0.02,0
-5.8400e-08,-0.004,-0.004,-0.02,0.04
-5.8000e-08,-0.004,-0.004,-0.06,0
-5.7600e-08,-0.012,0.004,-0.02,0
-5.7200e-08,-0.004,0.004,-0.02,0.04
-5.6800e-08,-0.004,-0.004,-0.02,0.04
-5.6400e-08,-0.004,0.004,-0.02,0.04
-5.6000e-08,0.004,0.004,-0.02,0.04
-5.5600e-08,0.004,0.004,-0.02,0.04
-5.5200e-08,-0.004,-0.004,-0.06,0.04
-5.4800e-08,0.004,-0.004,-0.02,0.04
-5.4400e-08,0.004,-0.004,0.02,0
-5.4000e-08,0.004,0.004,0.02,0
-5.3600e-08,-0.004,0.004,-0.02,0
-5.3200e-08,-0.004,0.004,-0.02,0
-5.2800e-08,-0.004,0.004,-0.02,0.08
-5.2400e-08,-0.004,0.004,0.06,0.04
-5.2000e-08,-0.004,0.004,0.02,0
-5.1600e-08,0.004,0.004,0.02,0.04
-5.1200e-08,0.004,-0.004,0.02,0
-5.0800e-08,0.004,-0.004,-0.02,0
-5.0400e-08,0.004,-0.004,0.02,0.04
-5.0000e-08,-0.004,0.004,-0.02,0
-4.9600e-08,0.004,0.004,0.02,0
-4.9200e-08,-0.004,-0.004,0.02,0
-4.8800e-08,0.004,-0.004,-0.02,0.08
-4.8400e-08,0.004,-0.004,0.02,0.08
-4.8000e-08,0.004,-0.004,-0.02,0.04
-4.7600e-08,0.004,0.004,0.06,0
-4.7200e-08,-0.004,-0.004,0.02,0.04
-4.6800e-08,0.004,0.004,0.02,0.04
-4.6400e-08,-0.012,0.004,0.02,0.04
-4.6000e-08,0.004,-0.004,0.06,0
-4.5600e-08,0.012,-0.004,0.02,-0.04
-4.5200e-08,0.004,-0.004,-0.02,0.04
-4.4800e-08,-0.004,-0.004,-0.02,0.04
-4.4400e-08,0.012,-0.004,0.02,0.04
-4.4000e-08,-0.004,-0.012,0.06,0
-4.3600e-08,0.004,0.004,0.02,0
-4.3200e-08,0.004,0.004,0.02,0.04
-4.2800e-08,0.004,-0.004,0.02,0
-4.2400e-08,-0.004,-0.012,0.02,0
-4.2000e-08,-0.012,0.004,0.02,0
-4.1600e-08,0.004,0.004,0.02,0
-4.1200e-08,-0.004,0.004,-0.02,0.04
-4.0800e-08,-0.004,-0.004,0.02,0
-4.0400e-08,-0.004,-0.004,-0.02,0
-4.0000e-08,0.004,0.004,0.02,0.04
-3.9600e-08,0.004,-0.004,0.06,0.08
-3.9200e-08,0.012,-0.004,0.02,0.04
-3.8800e-08,0.012,0.004,-0.02,0.04
-3.8400e-08,-0.004,0.004,-0.02,0
-3.8000e-08,0.004,-0.004,0.02,0.04
-3.7600e-08,-0.004,-0.004,0.02,0
-3.7200e-08,-0.004,0.004,0.06,0
-3.6800e-08,0.004,0.004,-0.06,0
-3.6400e-08,0.004,-0.004,0.02,0.04
-3.6000e-08,0.004,-0.004,0.02,0
-3.5600e-08,-0.004,0.004,0.02,0
-3.5200e-08,-0.004,-0.012,-0.02,0
-3.4800e-08,0.004,-0.004,-0.06,0.04
-3.4400e-08,-0.004,0.004,0.02,0.04
-3.4000e-08,0.004,-0.004,0.02,-0.04
-3.3600e-08,0.004,0.004,0.02,0
-3.3200e-08,-0.004,0.004,-0.02,0.04
-3.2800e-08,0.004,0.004,-0.02,-0.04
-3.2400e-08,0.004,0.004,-0.02,0.04
-3.2000e-08,0.004,-0.004,-0.02,0
-3.1600e-08,-0.004,-0.012,0.02,0
-3.1200e-08,-0.004,-0.004,0.06,0
-3.0800e-08,-0.004,-0.004,0.02,0
-3.0400e-08,0.004,-0.004,-0.02,-0.04
-3.0000e-08,-0.004,-0.004,0.02,0
-2.9600e-08,0.004,-0.004,0.06,0.04
-2.9200e-08,0.004,-0.012,-0.02,0.04
-2.8800e-08,-0.004,0.004,0.06,0.04
-2.8400e-08,0.004,0.004,0.06,0
-2.8000e-08,0.004,0.004,0.06,0.04
-2.7600e-08,-0.012,0.004,0.02,0
-2.7200e-08,0.004,-0.004,0.02,0
-2.6800e-08,-0.004,0.004,0.02,0
-2.6400e-08,-0.004,0.004,0.02,0.04
-2.6000e-08,-0.004,-0.004,0.02,0
-2.5600e-08,0.004,-0.004,0.02,0
-2.5200e-08,-0.004,-0.004,0.02,0
-2.4800e-08,-0.004,-0.004,0.02,0
-2.4400e-08,0.012,0.004,0.02,0
-2.4000e-08,0.004,-0.004,-0.02,-0.04
-2.3600e-08,-0.004,-0.004,0.02,0
-2.3200e-08,0.004,0.004,0.02,0.04
-2.2800e-08,0.004,0.012,0.1,0.04
-2.2400e-08,0.004,0.004,0.02,0
-2.2000e-08,0.004,-0.012,0.02,0
-2.1600e-08,0.012,0.004,0.02,0
-2.1200e-08,0.004,-0.004,0.02,0.04
-2.0800e-08,-0.004,0.004,0.02,0
-2.0400e-08,-0.004,0.004,0.06,0.04
-2.0000e-08,-0.004,-0.012,0.02,0.04
-1.9600e-08,-0.004,-0.004,-0.02,0
-1.9200e-08,-0.004,0.004,0.02,0.04
-1.8800e-08,-0.004,-0.004,-0.02,0.04
-1.8400e-08,-0.004,-0.004,-0.02,0
-1.8000e-08,-0.004,-0.004,-0.02,0
-1.7600e-08,0.012,0.004,-0.02,0
-1.7200e-08,0.004,-0.004,0.02,0
-1.6800e-08,0.004,0.004,0.02,0
-1.6400e-08,-0.004,0.004,-0.02,0.04
-1.6000e-08,-0.004,-0.004,-0.02,0.04
-1.5600e-08,-0.004,-0.004,0.02,0
-1.5200e-08,-0.012,0.004,-0.02,0
-1.4800e-08,-0.004,-0.004,0.02,0
-1.4400e-08,0.004,0.004,-0.02,-0.04
-1.4000e-08,-0.004,0.012,-0.02,-0.08
-1.3600e-08,-0.004,-0.004,-0.02,-0.08
-1.3200e-08,0.004,-0.004,-0.06,-0.08
-1.2800e-08,0.012,-0.004,-0.06,-0.12
-1.2400e-08,-0.004,-0.004,-0.1,-0.12
-1.2000e-08,-0.004,0.004,-0.14,-0.2
-1.1600e-08,-0.004,-0.004,-0.14,-0.28
-1.1200e-08,-0.004,0.004,-0.22,-0.36
-1.0800e-08,-0.004,0.004,-0.22,-0.36
-1.0400e-08,-0.004,-0.004,-0.26,-0.44
-1.0000e-08,-0.004,-0.004,-0.3,-0.48
-9.6000e-09,-0.004,-0.004,-0.38,-0.56
-9.2000e-09,0.004,0.004,-0.46,-0.64
-8.8000e-09,0.004,-0.004,-0.54,-0.76
-8.4000e-09,0.004,0.004,-0.58,-0.76
-8.0000e-09,-0.004,0.004,-0.66,-0.8
-7.6000e-09,-0.004,-0.004,-0.74,-0.88
-7.2000e-09,0.004,0.004,-0.82,-0.92
-6.8000e-09,0.004,0.004,-0.86,-1
-6.4000e-09,-0.004,-0.004,-0.94,-1.04
-6.0000e-09,0.004,-0.012,-0.98,-1.04
-5.6000e-09,0.004,-0.004,-1.06,-1.08
-5.2000e-09,0.004,-0.004,-1.1,-1.2
-4.8000e-09,-0.004,-0.004,-1.18,-1.24
-4.4000e-09,0.004,0.004,-1.22,-1.28
-4.0000e-09,0.004,0.004,-1.3,-1.36
-3.6000e-09,0.004,-0.004,-1.38,-1.4
-3.2000e-09,0.004,-0.004,-1.46,-1.48
-2.8000e-09,0.004,-0.004,-1.5,-1.48
-2.4000e-09,-0.004,-0.004,-1.5,-1.52
-2.0000e-09,-0.004,0.004,-1.54,-1.56
-1.6000e-09,-0.004,0.004,-1.58,-1.64
-1.2000e-09,-0.004,0.004,-1.66,-1.64
-8.0000e-10,-0.012,0.004,-1.66,-1.72
-4.0000e-10,-0.004,-0.004,-1.74,-1.76
0.0000e+00,-0.004,0.004,-1.74,-1.76
4.0000e-10,-0.004,-0.004,-1.82,-1.8
8.0000e-10,-0.004,0.004,-1.9,-1.92
1.2000e-09,-0.028,-0.012,-1.94,-1.96
1.6000e-09,-0.036,-0.036,-1.98,-1.96
2.0000e-09,-0.076,-0.076,-2.02,-1.96
2.4000e-09,-0.14,-0.14,-2.02,-2
2.8000e-09,-0.204,-0.244,-2.06,-2.04
3.2000e-09,-0.268,-0.364,-2.1,-2.08
3.6000e-09,-0.332,-0.46,-2.14,-2.12
4.0000e-09,-0.364,-0.524,-2.18,-2.16
4.4000e-09,-0.348,-0.524,-2.22,-2.16
4.8000e-09,-0.316,-0.492,-2.22,-2.24
5.2000e-09,-0.276,-0.428,-2.26,-2.28
5.6000e-09,-0.244,-0.356,-2.26,-2.24
6.0000e-09,-0.204,-0.308,-2.3,-2.32
6.4000e-09,-0.172,-0.252,-2.3,-2.32
6.8000e-09,-0.148,-0.212,-2.38,-2.28
7.2000e-09,-0.132,-0.18,-2.38,-2.32
7.6000e-09,-0.116,-0.156,-2.42,-2.32
8.0000e-09,-0.1,-0.148,-2.46,-2.4
8.4000e-09,-0.076,-0.14,-2.46,-2.4
8.8000e-09,-0.068,-0.124,-2.46,-2.4
9.2000e-09,-0.06,-0.132,-2.46,-2.4
9.6000e-09,-0.052,-0.14,-2.5,-2.44
1.0000e-08,-0.044,-0.124,-2.54,-2.44
1.0400e-08,-0.044,-0.124,-2.54,-2.44
1.0800e-08,-0.044,-0.116,-2.58,-2.44
1.1200e-08,-0.044,-0.1,-2.58,-2.44
1.1600e-08,-0.036,-0.084,-2.58,-2.44
1.2000e-08,-0.036,-0.076,-2.62,-2.44
1.2400e-08,-0.036,-0.068,-2.62,-2.44
1.2800e-08,-0.028,-0.06,-2.62,-2.44
1.3200e-08,-0.02,-0.06,-2.58,-2.36
1.3600e-08,-0.036,-0.052,-2.62,-2.4
1.4000e-08,-0.028,-0.06,-2.62,-2.4
1.4400e-08,-0.02,-0.06,-2.62,-2.36
1.4800e-08,-0.028,-0.052,-2.62,-2.36
1.5200e-08,-0.028,-0.052,-2.62,-2.36
1.5600e-08,-0.02,-0.052,-2.62,-2.36
1.6000e-08,-0.036,-0.052,-2.62,-2.4
1.6400e-08,-0.036,-0.052,-2.62,-2.36
1.6800e-08,-0.036,-0.052,-2.58,-2.4
1.7200e-08,-0.036,-0.052,-2.58,-2.36
1.7600e-08,-0.044,-0.052,-2.58,-2.36
1.8000e-08,-0.052,-0.044,-2.54,-2.4
1.8400e-08,-0.052,-0.06,-2.5,-2.36
1.8800e-08,-0.044,-0.044,-2.54,-2.36
1.9200e-08,-0.052,-0.052,-2.46,-2.32
1.9600e-08,-0.052,-0.044,-2.54,-2.32
2.0000e-08,-0.036,-0.036,-2.5,-2.32
2.0400e-08,-0.052,-0.052,-2.54,-2.32
2.0800e-08,-0.052,-0.052,-2.46,-2.36
2.1200e-08,-0.06,-0.076,-2.5,-2.32
2.1600e-08,-0.052,-0.06,-2.46,-2.28
2.2000e-08,-0.052,-0.076,-2.46,-2.32
2.2400e-08,-0.036,-0.092,-2.46,-2.32
2.2800e-08,-0.052,-0.1,-2.46,-2.32
2.3200e-08,-0.044,-0.1,-2.38,-2.24
2.3600e-08,-0.028,-0.108,-2.42,-2.28
2.4000e-08,-0.036,-0.1,-2.42,-2.2
2.4400e-08,-0.036,-0.1,-2.34,-2.2
2.4800e-08,-0.028,-0.1,-2.38,-2.24
2.5200e-08,-0.036,-0.1,-2.34,-2.2
2.5600e-08,-0.028,-0.1,-2.3,-2.2
2.6000e-08,-0.028,-0.084,-2.34,-2.16
2.6400e-08,-0.02,-0.092,-2.3,-2.16
2.6800e-08,-0.028,-0.084,-2.3,-2.12
2.7200e-08,-0.02,-0.076,-2.3,-2.12
2.7600e-08,-0.02,-0.076,-2.3,-2.12
2.8000e-08,-0.028,-0.06,-2.26,-2.08
2.8400e-08,-0.02,-0.052,-2.26,-2.12
2.8800e-08,-0.02,-0.052,-2.22,-2.12
2.9200e-08,-0.028,-0.052,-2.22,-2.08
2.9600e-08,-0.02,-0.052,-2.18,-2.08
3.0000e-08,-0.028,-0.06,-2.18,-2.12
3.0400e-08,-0.028,-0.052,-2.14,-2.08
3.0800e-08,-0.028,-0.052,-2.14,-2.04
3.1200e-08,-0.028,-0.06,-2.14,-2.04
3.1600e-08,-0.028,-0.06,-2.14,-2.04
3.2000e-08,-0.028,-0.052,-2.1,-2
3.2400e-08,-0.028,-0.068,-2.06,-1.96
3.2800e-08,-0.02,-0.06,-2.06,-1.92
3.3200e-08,-0.028,-0.052,-2.06,-1.96
3.3600e-08,-0.028,-0.052,-2.06,-1.96
3.4000e-08,-0.02,-0.044,-2.02,-1.92
3.4400e-08,-0.02,-0.052,-1.98,-1.92
3.4800e-08,-0.028,-0.044,-1.94,-1.92
3.5200e-08,-0.028,-0.044,-1.98,-1.96
3.5600e-08,-0.036,-0.036,-1.94,-1.88
3.6000e-08,-0.044,-0.036,-1.94,-1.92
3.6400e-08,-0.044,-0.036,-1.94,-1.92
3.6800e-08,-0.044,-0.036,-1.9,-1.84
3.7200e-08,-0.044,-0.028,-1.9,-1.84
3.7600e-08,-0.036,-0.036,-1.9,-1.8
3.8000e-08,-0.036,-0.044,-1.82,-1.76
3.8400e-08,-0.044,-0.044,-1.82,-1.72
3.8800e-08,-0.036,-0.036,-1.82,-1.76
3.9200e-08,-0.036,-0.052,-1.82,-1.8
3.9600e-08,-0.036,-0.036,-1.78,-1.72
4.0000e-08,-0.028,-0.028,-1.78,-1.72
4.0400e-08,-0.028,-0.028,-1.82,-1.68
4.0800e-08,-0.036,-0.028,-1.78,-1.72
4.1200e-08,-0.044,-0.028,-1.74,-1.72
4.1600e-08,-0.044,-0.028,-1.7,-1.72
4.2000e-08,-0.052,-0.028,-1.74,-1.68
4.2400e-08,-0.036,-0.028,-1.7,-1.64
4.2800e-08,-0.036,-0.028,-1.7,-1.64
4.3200e-08,-0.044,-0.028,-1.7,-1.64
4.3600e-08,-0.044,-0.036,-1.66,-1.6
4.4000e-08,-0.044,-0.036,-1.7,-1.52
4.4400e-08,-0.044,-0.036,-1.62,-1.56
4.4800e-08,-0.044,-0.036,-1.62,-1.56
4.5200e-08,-0.044,-0.044,-1.58,-1.56
4.5600e-08,-0.044,-0.036,-1.62,-1.56
4.6000e-08,-0.036,-0.036,-1.54,-1.52
4.6400e-08,-0.036,-0.02,-1.58,-1.52
4.6800e-08,-0.036,-0.02,-1.54,-1.48
4.7200e-08,-0.028,-0.028,-1.54,-1.44
4.7600e-08,-0.028,-0.012,-1.54,-1.48
4.8000e-08,-0.028,-0.02,-1.5,-1.44
4.8400e-08,-0.028,-0.02,-1.54,-1.4
4.8800e-08,-0.02,-0.012,-1.5,-1.4
4.9200e-08,-0.028,-0.028,-1.46,-1.36
4.9600e-08,-0.012,-0.036,-1.5,-1.4
5.0000e-08,-0.02,-0.036,-1.46,-1.4
5.0400e-08,-0.012,-0.036,-1.42,-1.36
5.0800e-08,-0.012,-0.036,-1.42,-1.36
5.1200e-08,-0.012,-0.052,-1.46,-1.32
5.1600e-08,-0.012,-0.052,-1.42,-1.36
5.2000e-08,-0.012,-0.052,-1.42,-1.28
5.2400e-08,-0.02,-0.044,-1.38,-1.36
5.2800e-08,-0.02,-0.036,-1.38,-1.32
5.3200e-08,-0.028,-0.052,-1.3,-1.28
5.3600e-08,-0.028,-0.052,-1.38,-1.24
5.4000e-08,-0.028,-0.052,-1.34,-1.24
5.4400e-08,-0.028,-0.06,-1.34,-1.28
5.4800e-08,-0.028,-0.052,-1.3,-1.24
5.5200e-08,-0.02,-0.052,-1.34,-1.24
5.5600e-08,-0.004,-0.044,-1.3,-1.28
5.6000e-08,-0.02,-0.044,-1.3,-1.2
5.6400e-08,-0.02,-0.044,-1.26,-1.2
5.6800e-08,-0.012,-0.036,-1.26,-1.24
5.7200e-08,-0.004,-0.036,-1.26,-1.24
5.7600e-08,-0.004,-0.028,-1.26,-1.2
5.8000e-08,-0.004,-0.036,-1.26,-1.2
5.8400e-08,-0.02,-0.028,-1.26,-1.2
5.8800e-08,-0.02,-0.028,-1.22,-1.16
5.9200e-08,-0.012,-0.036,-1.22,-1.12
5.9600e-08,-0.02,-0.028,-1.22,-1.12
6.0000e-08,-0.028,-0.028,-1.18,-1.12
6.0400e-08,-0.036,-0.036,-1.18,-1.12
6.0800e-08,-0.02,-0.036,-1.18,-1.08
6.1200e-08,-0.02,-0.044,-1.14,-1.08
6.1600e-08,-0.036,-0.036,-1.14,-1.04
6.2000e-08,-0.028,-0.036,-1.14,-1.04
6.2400e-08,-0.028,-0.036,-1.1,-1.04
6.2800e-08,-0.012,-0.028,-1.1,-1.04
6.3200e-08,-0.028,-0.036,-1.06,-1.04
6.3600e-08,-0.02,-0.036,-1.14,-1.08
6.4000e-08,-0.012,-0.028,-1.1,-1.04
6.4400e-08,-0.012,-0.036,-1.14,-1.04
6.4800e-08,-0.012,-0.036,-1.06,-1.04
6.5200e-08,-0.012,-0.044,-1.06,-1
6.5600e-08,-0.004,-0.036,-1.06,-1.04
6.6000e-08,-0.004,-0.028,-1.1,-1.04
6.6400e-08,0.004,-0.028,-1.06,-1
6.6800e-08,-0.004,-0.02,-1.02,-1
6.7200e-08,-0.012,-0.028,-1.02,-0.96
6.7600e-08,-0.012,-0.012,-0.98,-0.92
6.8000e-08,-0.012,-0.004,-0.98,-1
6.8400e-08,-0.004,-0.012,-0.94,-0.96
6.8800e-08,-0.012,-0.012,-0.98,-1
6.9200e-08,-0.012,-0.012,-0.94,-0.96
6.9600e-08,-0.028,-0.012,-0.94,-0.92
7.0000e-08,-0.036,-0.004,-0.98,-0.96
7.0400e-08,-0.028,-0.004,-0.94,-0.96
7.0800e-08,-0.028,-0.012,-0.94,-0.92
7.1200e-08,-0.028,-0.012,-0.94,-0.92
7.1600e-08,-0.028,-0.02,-0.9,-0.88
7.2000e-08,-0.02,-0.028,-0.98,-0.88
7.2400e-08,-0.028,-0.036,-0.9,-0.88
7.2800e-08,-0.02,-0.028,-0.9,-0.84
7.3200e-08,-0.02,-0.036,-0.86,-0.84
7.3600e-08,-0.012,-0.028,-0.86,-0.84
7.4000e-08,-0.02,-0.028,-0.9,-0.88
7.4400e-08,-0.004,-0.028,-0.86,-0.84
7.4800e-08,-0.012,-0.02,-0.9,-0.84
7.5200e-08,-0.012,-0.028,-0.86,-0.8
7.5600e-08,-0.02,-0.036,-0.82,-0.84
7.6000e-08,-0.012,-0.036,-0.78,-0.84
7.6400e-08,-0.02,-0.036,-0.86,-0.8
7.6800e-08,-0.012,-0.028,-0.86,-0.8
7.7200e-08,-0.012,-0.036,-0.86,-0.8
7.7600e-08,-0.02,-0.028,-0.82,-0.76
7.8000e-08,-0.012,-0.028,-0.82,-0.8
7.8400e-08,-0.02,-0.02,-0.82,-0.76
7.8800e-08,-0.02,-0.012,-0.78,-0.76
7.9200e-08,-0.02,-0.012,-0.78,-0.76
7.9600e-08,-0.02,-0.012,-0.78,-0.76
8.0000e-08,-0.02,-0.012,-0.78,-0.76
8.0400e-08,-0.028,-0.012,-0.74,-0.76
8.0800e-08,-0.012,-0.012,-0.78,-0.76
8.1200e-08,-0.012,-0.012,-0.74,-0.76
8.1600e-08,-0.02,-0.012,-0.78,-0.72
8.2000e-08,-0.02,-0.012,-0.78,-0.68
8.2400e-08,-0.012,-0.004,-0.82,-0.68
8.2800e-08,-0.012,-0.012,-0.7,-0.64
8.3200e-08,-0.012,-0.004,-0.74,-0.68
8.3600e-08,-0.012,-0.012,-0.74,-0.68
8.4000e-08,-0.012,-0.012,-0.74,-0.68
8.4400e-08,-0.004,-0.012,-0.74,-0.68
8.4800e-08,0.004,-0.012,-0.66,-0.68
8.5200e-08,0.004,-0.02,-0.66,-0.64
8.5600e-08,-0.004,-0.02,-0.7,-0.68
8.6000e-08,-0.012,-0.028,-0.7,-0.64
8.6400e-08,-0.004,-0.028,-0.7,-0.64
8.6800e-08,-0.012,-0.028,-0.66,-0.6
8.7200e-08,-0.004,-0.028,-0.62,-0.6
8.7600e-08,-0.004,-0.012,-0.62,-0.64
8.8000e-08,-0.004,-0.012,-0.66,-0.64
8.8400e-08,-0.004,-0.02,-0.66,-0.64
8.8800e-08,-0.012,-0.02,-0.62,-0.64
8.9200e-08,-0.004,-0.012,-0.62,-0.64
8.9600e-08,-0.012,-0.02,-0.66,-0.6
9.0000e-08,-0.012,-0.004,-0.66,-0.6
9.0400e-08,-0.012,-0.004,-0.62,-0.6
9.0800e-08,-0.012,-0.004,-0.58,-0.6
9.1200e-08,-0.012,-0.012,-0.58,-0.6
9.1600e-08,-0.004,-0.012,-0.62,-0.6
9.2000e-08,-0.004,-0.004,-0.58,-0.56
9.2400e-08,-0.004,-0.02,-0.58,-0.6
9.2800e-08,-0.004,-0.012,-0.62,-0.56
9.3200e-08,-0.004,-0.012,-0.62,-0.56
9.3600e-08,-0.004,-0.02,-0.58,-0.56
9.4000e-08,-0.004,-0.028,-0.54,-0.56
9.4400e-08,-0.012,-0.028,-0.54,-0.52
9.4800e-08,-0.004,-0.02,-0.54,-0.56
9.5200e-08,-0.004,-0.012,-0.54,-0.56
9.5600e-08,0.004,-0.012,-0.58,-0.56
9.6000e-08,-0.004,-0.012,-0.54,-0.52
9.6400e-08,0.004,-0.02,-0.58,-0.56
9.6800e-08,-0.004,-0.012,-0.58,-0.52
9.7200e-08,-0.004,-0.028,-0.54,-0.52
